<?xml version="1.0" encoding="UTF-8" standalone="no"?>
<!-- Created with Inkscape (http://www.inkscape.org/) -->

<svg
   xmlns:atv="http://webmi.atvise.com/2007/svgext"
   xmlns:osb="http://www.openswatchbook.org/uri/2009/osb"
   xmlns:dc="http://purl.org/dc/elements/1.1/"
   xmlns:cc="http://creativecommons.org/ns#"
   xmlns:rdf="http://www.w3.org/1999/02/22-rdf-syntax-ns#"
   xmlns:svg="http://www.w3.org/2000/svg"
   xmlns="http://www.w3.org/2000/svg"
   xmlns:xlink="http://www.w3.org/1999/xlink"
   xmlns:sodipodi="http://sodipodi.sourceforge.net/DTD/sodipodi-0.dtd"
   xmlns:inkscape="http://www.inkscape.org/namespaces/inkscape"
   width="100%"
   height="100%"
   viewBox="-9.2603 0 494.7646 187.85417"
   version="1.1"
   id="svg8"
   inkscape:version="0.92.1 r15371"
   sodipodi:docname="1Hotel_2Lueftungen_3L03BueroSchule_L03Verteilung2_4L03LueftungVerteilung2BueroSchuleBA_SL01.svg">
  <defs
     id="defs2">
    <linearGradient
       id="linearGradient7016"
       osb:paint="solid">
      <stop
         style="stop-color:#ed8b0d;stop-opacity:1;"
         offset="0"
         id="stop7014" />
    </linearGradient>
    <linearGradient
       x2="95.790497"
       gradientUnits="userSpaceOnUse"
       y2="184.22392"
       x1="-0.31637955"
       y1="184.22392"
       id="linearGradient6902"
       spreadMethod="reflect"
       gradientTransform="matrix(0.79019013,0,0,1.2655182,891.24136,407.83495)">
      <stop
         id="stop6898"
         stop-color="#000000"
         offset="0" />
      <stop
         id="stop6900"
         stop-color="#8c8c8c"
         offset="1"
         style="stop-color:#15202b;stop-opacity:1" />
    </linearGradient>
    <linearGradient
       id="linearGradient6533"
       osb:paint="solid">
      <stop
         style="stop-color:#72c072;stop-opacity:1;"
         offset="0"
         id="stop6531" />
    </linearGradient>
    <linearGradient
       gradientTransform="matrix(0.79019013,0,0,1.2655182,891.24136,407.83495)"
       spreadMethod="reflect"
       id="linearGradient6495"
       y1="184.22392"
       x1="-0.31637955"
       y2="184.22392"
       gradientUnits="userSpaceOnUse"
       x2="95.790497">
      <stop
         offset="0"
         stop-color="#000000"
         id="stop6491" />
      <stop
         offset="1"
         stop-color="#8c8c8c"
         id="stop6493" />
    </linearGradient>
    <linearGradient
       gradientTransform="matrix(0.79019013,0,0,1.2655182,891.24136,407.83495)"
       spreadMethod="reflect"
       id="linearGradient6479"
       y1="184.22392"
       x1="-0.31637955"
       y2="184.22392"
       gradientUnits="userSpaceOnUse"
       x2="95.790497">
      <stop
         offset="0"
         stop-color="#000000"
         id="stop6475"
         style="stop-color:#999999;stop-opacity:1" />
      <stop
         offset="1"
         stop-color="#8c8c8c"
         id="stop6477" />
    </linearGradient>
    <inkscape:path-effect
       effect="spiro"
       id="path-effect6378"
       is_visible="true" />
    <inkscape:path-effect
       effect="spiro"
       id="path-effect6374"
       is_visible="true" />
    <inkscape:path-effect
       effect="spiro"
       id="path-effect6370"
       is_visible="true" />
    <inkscape:perspective
       sodipodi:type="inkscape:persp3d"
       inkscape:vp_x="0 : 93.927085 : 1"
       inkscape:vp_y="0 : 1000 : 0"
       inkscape:vp_z="476.24999 : 93.927085 : 1"
       inkscape:persp3d-origin="238.125 : 62.618057 : 1"
       id="perspective6348" />
    <inkscape:path-effect
       effect="spiro"
       id="path-effect6346"
       is_visible="true" />
    <linearGradient
       gradientTransform="matrix(0.82559229,0,0,1.2112516,891.24136,407.83495)"
       spreadMethod="reflect"
       id="linearGradient6257"
       y1="184.23386"
       x1="0"
       y2="184.23386"
       gradientUnits="userSpaceOnUse"
       x2="91.678764">
      <stop
         offset="0"
         stop-color="#999999"
         id="stop6253" />
      <stop
         offset="1"
         stop-color="#f2f2f2"
         id="stop6255"
         style="stop-color:#ef1b1b;stop-opacity:1" />
    </linearGradient>
    <linearGradient
       gradientTransform="matrix(0.82559229,0,0,1.2112516,891.24136,407.83495)"
       spreadMethod="reflect"
       id="linearGradient6249"
       y1="184.23386"
       x1="0"
       y2="184.23386"
       gradientUnits="userSpaceOnUse"
       x2="91.678764">
      <stop
         offset="0"
         stop-color="#999999"
         id="stop6245"
         style="stop-color:#d62424;stop-opacity:1" />
      <stop
         offset="1"
         stop-color="#f2f2f2"
         id="stop6247" />
    </linearGradient>
    <linearGradient
       x2="95.790497"
       gradientUnits="userSpaceOnUse"
       y2="184.22392"
       x1="-0.31637955"
       y1="184.22392"
       id="id_36_fill_gradient-12"
       spreadMethod="reflect"
       gradientTransform="matrix(0.79019013,0,0,1.2655182,891.24136,407.83495)">
      <stop
         id="stop5900"
         stop-color="#000000"
         offset="0" />
      <stop
         id="stop5902"
         stop-color="#8c8c8c"
         offset="1" />
    </linearGradient>
    <linearGradient
       x2="91.678764"
       gradientUnits="userSpaceOnUse"
       y2="184.23386"
       x1="0"
       y1="184.23386"
       id="id_17_fill_gradient-7"
       spreadMethod="reflect"
       gradientTransform="matrix(0.82559229,0,0,1.2112516,891.24136,407.83495)">
      <stop
         id="stop5895"
         stop-color="#999999"
         offset="0" />
      <stop
         id="stop5897"
         stop-color="#f2f2f2"
         offset="1" />
    </linearGradient>
    <linearGradient
       inkscape:collect="always"
       xlink:href="#id_17_fill_gradient-7"
       id="linearGradient6447"
       gradientUnits="userSpaceOnUse"
       gradientTransform="matrix(0.21843796,0,0,0.32047698,-51.939784,31.771168)"
       x1="-1017.7682"
       y1="178.46416"
       x2="-919.02661"
       y2="178.46416"
       spreadMethod="reflect" />
    <linearGradient
       inkscape:collect="always"
       xlink:href="#linearGradient6495"
       id="linearGradient6489"
       x1="-233.41592"
       y1="236.57091"
       x2="-191.00809"
       y2="236.57091"
       gradientUnits="userSpaceOnUse"
       spreadMethod="pad" />
    <inkscape:path-effect
       effect="spiro"
       id="path-effect6370-6"
       is_visible="true" />
    <inkscape:path-effect
       effect="spiro"
       id="path-effect6374-3"
       is_visible="true" />
    <inkscape:path-effect
       effect="spiro"
       id="path-effect6378-0"
       is_visible="true" />
    <inkscape:path-effect
       effect="spiro"
       id="path-effect6370-6-9"
       is_visible="true" />
    <inkscape:path-effect
       effect="spiro"
       id="path-effect6374-3-3"
       is_visible="true" />
    <inkscape:path-effect
       effect="spiro"
       id="path-effect6378-0-5"
       is_visible="true" />
    <linearGradient
       inkscape:collect="always"
       xlink:href="#linearGradient6495"
       id="linearGradient6896"
       x1="-233.41592"
       y1="236.57091"
       x2="-191.00809"
       y2="236.57091"
       gradientUnits="userSpaceOnUse"
       spreadMethod="pad" />
  </defs>
  <sodipodi:namedview
     id="base"
     pagecolor="#ffffff"
     bordercolor="#666666"
     borderopacity="1.0"
     inkscape:pageopacity="0.0"
     inkscape:pageshadow="2"
     inkscape:zoom="0.49497475"
     inkscape:cx="439.03738"
     inkscape:cy="320.77059"
     inkscape:document-units="mm"
     inkscape:current-layer="layer1"
     showgrid="false"
     units="px"
     inkscape:snap-grids="true"
     inkscape:snap-center="true"
     inkscape:snap-object-midpoints="true"
     inkscape:snap-midpoints="true"
     inkscape:snap-intersection-paths="true"
     inkscape:snap-bbox="true"
     inkscape:bbox-paths="true"
     inkscape:bbox-nodes="true"
     inkscape:snap-bbox-edge-midpoints="true"
     inkscape:snap-bbox-midpoints="true"
     inkscape:measure-start="432.595,385.909"
     inkscape:measure-end="478.854,385.909"
     inkscape:window-width="1920"
     inkscape:window-height="1018"
     inkscape:window-x="-8"
     inkscape:window-y="-8"
     inkscape:window-maximized="1"
     showguides="true"
     inkscape:snap-page="true">
    <inkscape:grid
       type="xygrid"
       id="grid6774" />
  </sodipodi:namedview>
  <metadata
     id="metadata5">
    <rdf:RDF>
      <cc:Work
         rdf:about="">
        <dc:format>image/svg+xml</dc:format>
        <dc:type
           rdf:resource="http://purl.org/dc/dcmitype/StillImage" />
        <dc:title />
      </cc:Work>
    </rdf:RDF>
  </metadata>
  <g
     inkscape:label="Ebene 1"
     inkscape:groupmode="layer"
     id="layer1"
     transform="translate(0,-109.14582)">
    <g
       id="g64380-4"
       transform="matrix(0.26458333,0,0,0.26458333,-246.97037,104.95684)">
      <g
         id="g64347-9">
        <rect
           style="color:#000000;display:inline;overflow:visible;visibility:visible;fill:#000100;fill-opacity:1;fill-rule:nonzero;stroke:#000000;stroke-width:1;stroke-linecap:butt;stroke-linejoin:miter;stroke-miterlimit:4;stroke-dasharray:none;stroke-dashoffset:0;stroke-opacity:1;marker:none;enable-background:accumulate"
           id="rect64296-2-7"
           width="5.6421356"
           height="35.056572"
           x="128.54912"
           y="656.01727" />
        <rect
           style="color:#000000;display:inline;overflow:visible;visibility:visible;fill:#000100;fill-opacity:1;fill-rule:nonzero;stroke:#000000;stroke-width:1;stroke-linecap:butt;stroke-linejoin:miter;stroke-miterlimit:4;stroke-dasharray:none;stroke-dashoffset:0;stroke-opacity:1;marker:none;enable-background:accumulate"
           id="rect64296-9-3"
           width="5.6421356"
           height="35.056572"
           x="198.85432"
           y="656.01727" />
        <rect
           style="color:#000000;display:inline;overflow:visible;visibility:visible;fill:#000100;fill-opacity:1;fill-rule:nonzero;stroke:#000000;stroke-width:1;stroke-linecap:butt;stroke-linejoin:miter;stroke-miterlimit:4;stroke-dasharray:none;stroke-dashoffset:0;stroke-opacity:1;marker:none;enable-background:accumulate"
           id="rect64296-8"
           width="5.6421356"
           height="35.056572"
           x="58.243927"
           y="656.01727" />
      </g>
      <path
         inkscape:connector-curvature="0"
         id="path64373-1"
         d="M 40.919306,691.50002 H 221.82108"
         style="fill:none;fill-rule:evenodd;stroke:#000000;stroke-width:2;stroke-linecap:butt;stroke-linejoin:miter;stroke-miterlimit:4;stroke-dasharray:none;stroke-opacity:1" />
    </g>
    <path
       style="fill:#000000;fill-opacity:1;stroke:url(#linearGradient6489);stroke-width:0.13229167;stroke-linejoin:round;stroke-opacity:1"
       d="m -233.41593,194.81218 h 42.40785 v 83.51746 h -42.40785 z"
       atv:refpy="119.731"
       atv:refpx="74.667"
       id="path5933-0-7-5"
       inkscape:connector-curvature="0" />
    <path
       style="fill:#999999;fill-opacity:1;stroke-width:0.13229167;stroke-linejoin:round;stroke:url(#linearGradient6896)"
       d="m -233.41593,198.36476 h 42.40785 v 76.41231 h -42.40785 z"
       atv:refpy="119.611"
       atv:refpx="74.667"
       id="path5935-2-4-25"
       inkscape:connector-curvature="0" />
    <g
       id="g6386"
       transform="matrix(0.27047495,0,0,0.27047495,-124.70784,211.87579)">
      <path
         inkscape:original-d="m -323.51943,52.962307 c -8.33307,16.666403 -16.66642,33.333072 -25,50.000003"
         inkscape:path-effect="#path-effect6370"
         inkscape:connector-curvature="0"
         id="path6368"
         d="m -323.51943,52.962307 -25,50.000003"
         style="fill:none;stroke:#000000;stroke-width:0.26458332px;stroke-linecap:butt;stroke-linejoin:miter;stroke-opacity:1" />
      <path
         inkscape:original-d="m -348.51943,102.96231 c 16.66693,-2.6e-4 33.33359,-2.6e-4 50.00001,0"
         inkscape:path-effect="#path-effect6374"
         inkscape:connector-curvature="0"
         id="path6372"
         d="m -348.51943,102.96231 h 50.00001"
         style="fill:none;stroke:#000000;stroke-width:0.26458332px;stroke-linecap:butt;stroke-linejoin:miter;stroke-opacity:1" />
      <path
         inkscape:original-d="m -298.51942,102.96231 c -8.33308,-16.666932 -16.6664,-33.3336 -25.00001,-50.000003"
         inkscape:path-effect="#path-effect6378"
         inkscape:connector-curvature="0"
         id="path6376"
         d="M -298.51942,102.96231 -323.51943,52.962307"
         style="fill:none;stroke:#000000;stroke-width:0.26458332px;stroke-linecap:butt;stroke-linejoin:miter;stroke-opacity:1" />
      <path
         inkscape:connector-curvature="0"
         id="path6380"
         d="m -1269.6006,-117.08067 c 25.6258,-51.25262 46.7066,-93.18658 46.8462,-93.18658 0.1396,0 21.2205,41.93396 46.8463,93.18658 l 46.5925,93.186568 h -93.4388 -93.4387 z"
         style="opacity:1;fill:#ff0000;fill-opacity:1;stroke:none;stroke-width:0.25253814;stroke-miterlimit:4;stroke-dasharray:none;stroke-opacity:1"
         transform="matrix(0.26458333,0,0,0.26458333,0,109.14582)" />
    </g>
    <g
       id="g6579">
      <g
         transform="matrix(0.26458333,0,0,0.26458333,-287.81342,-88.877399)"
         id="g64380-2">
        <g
           id="g64347-4">
          <rect
             y="656.01727"
             x="128.54912"
             height="35.056572"
             width="5.6421356"
             id="rect64296-2-5"
             style="color:#000000;display:inline;overflow:visible;visibility:visible;fill:#000100;fill-opacity:1;fill-rule:nonzero;stroke:#000000;stroke-width:1;stroke-linecap:butt;stroke-linejoin:miter;stroke-miterlimit:4;stroke-dasharray:none;stroke-dashoffset:0;stroke-opacity:1;marker:none;enable-background:accumulate" />
          <rect
             y="656.01727"
             x="198.85432"
             height="35.056572"
             width="5.6421356"
             id="rect64296-9-0"
             style="color:#000000;display:inline;overflow:visible;visibility:visible;fill:#000100;fill-opacity:1;fill-rule:nonzero;stroke:#000000;stroke-width:1;stroke-linecap:butt;stroke-linejoin:miter;stroke-miterlimit:4;stroke-dasharray:none;stroke-dashoffset:0;stroke-opacity:1;marker:none;enable-background:accumulate" />
          <rect
             y="656.01727"
             x="58.243927"
             height="35.056572"
             width="5.6421356"
             id="rect64296-3"
             style="color:#000000;display:inline;overflow:visible;visibility:visible;fill:#000100;fill-opacity:1;fill-rule:nonzero;stroke:#000000;stroke-width:1;stroke-linecap:butt;stroke-linejoin:miter;stroke-miterlimit:4;stroke-dasharray:none;stroke-dashoffset:0;stroke-opacity:1;marker:none;enable-background:accumulate" />
        </g>
        <path
           style="fill:none;fill-rule:evenodd;stroke:#000000;stroke-width:2;stroke-linecap:butt;stroke-linejoin:miter;stroke-miterlimit:4;stroke-dasharray:none;stroke-opacity:1"
           d="M 40.919306,691.50002 H 221.82108"
           id="path64373-86"
           inkscape:connector-curvature="0" />
      </g>
      <path
         inkscape:connector-curvature="0"
         id="path5933-0-7-0"
         atv:refpx="74.667"
         atv:refpy="119.731"
         d="m -274.25898,8.3505086 h 42.40785 V 91.867967 h -42.40785 z"
         style="fill:#000000;fill-opacity:1;stroke:#000000;stroke-width:0.13229167;stroke-linejoin:round" />
      <path
         inkscape:connector-curvature="0"
         id="path5935-2-4-1"
         atv:refpx="74.667"
         atv:refpy="119.611"
         d="m -274.19283,11.903079 h 42.40785 v 76.412317 h -42.40785 z"
         style="fill:url(#linearGradient6447);fill-opacity:1;stroke-width:0.13229167;stroke-linejoin:round" />
      <path
         style="opacity:1;fill:#ff0000;fill-opacity:1;stroke:#999999;stroke-width:0.01807243;stroke-miterlimit:4;stroke-dasharray:none;stroke-opacity:1"
         d="m -256.40753,50.109243 c 1.83387,-3.6678 3.34247,-6.66873 3.35246,-6.66873 0.01,0 1.51861,3.00093 3.35247,6.66873 l 3.33431,6.66872 h -6.68678 -6.68676 z"
         id="path6380-2"
         inkscape:connector-curvature="0" />
    </g>
    <path
       style="fill:none;fill-rule:evenodd;stroke:#ff0000;stroke-width:2.64583325;stroke-linecap:butt;stroke-linejoin:miter;stroke-miterlimit:4;stroke-dasharray:none;stroke-opacity:1"
       d="M 476.25,285.67707 H -1.8900078e-8"
       id="path5109-0-5-4-2-4"
       inkscape:connector-curvature="0" />
    <path
       style="fill:none;fill-rule:evenodd;stroke:#ff0000;stroke-width:2.64583349;stroke-linecap:butt;stroke-linejoin:miter;stroke-miterlimit:4;stroke-dasharray:none;stroke-opacity:1"
       d="M 401.39236,85.853285 H 109.63145"
       id="path5109-0-5-4-2-8"
       inkscape:connector-curvature="0" />
    <path
       style="fill:none;fill-rule:evenodd;stroke:#ffff00;stroke-width:2.64583325;stroke-linecap:butt;stroke-linejoin:miter;stroke-miterlimit:4;stroke-dasharray:none;stroke-opacity:1"
       d="M 109.63145,73.129425 H 219.59953"
       id="path5109-4-4-0-9-2-3"
       inkscape:connector-curvature="0" />
    <path
       style="fill:none;fill-rule:evenodd;stroke:#ffff00;stroke-width:2.64583325;stroke-linecap:butt;stroke-linejoin:miter;stroke-miterlimit:4;stroke-dasharray:none;stroke-opacity:1"
       d="M 203.43499,-52.563435 V 71.806505"
       id="path5109-0-5-3-6-9-0-3"
       inkscape:connector-curvature="0" />
    <path
       style="fill:none;fill-rule:evenodd;stroke:#ff0000;stroke-width:2.64583349;stroke-linecap:butt;stroke-linejoin:miter;stroke-miterlimit:4;stroke-dasharray:none;stroke-opacity:1"
       d="M 221.48335,-67.403975 V 87.176205"
       id="path5109-4-7-2-2-9-6"
       inkscape:connector-curvature="0" />
    <path
       style="fill:none;fill-rule:evenodd;stroke:#ffff00;stroke-width:2.64583325;stroke-linecap:butt;stroke-linejoin:miter;stroke-miterlimit:4;stroke-dasharray:none;stroke-opacity:1"
       d="M 204.22874,-53.357185 H 125.09842"
       id="path5109-0-5-4-2-9"
       inkscape:connector-curvature="0" />
    <path
       style="fill:none;fill-rule:evenodd;stroke:#ff0000;stroke-width:2.64583325;stroke-linecap:butt;stroke-linejoin:miter;stroke-miterlimit:4;stroke-dasharray:none;stroke-opacity:1"
       d="m 135.30378,-66.081055 h 86.97333"
       id="path5109-4-4-0-9-2-3-2"
       inkscape:connector-curvature="0" />
    <g
       id="g4628"
       transform="translate(35.09642,-182.50515)">
      <path
         inkscape:connector-curvature="0"
         style="fill:none;stroke:#000000;stroke-width:0.19049859px;stroke-linecap:butt;stroke-linejoin:miter;stroke-miterlimit:4;stroke-dasharray:none;stroke-opacity:1"
         d="m 184.59836,252.7665 v 5.73612"
         id="path4598" />
      <path
         inkscape:connector-curvature="0"
         style="fill:none;stroke:#000000;stroke-width:0.19049859px;stroke-linecap:butt;stroke-linejoin:miter;stroke-miterlimit:4;stroke-dasharray:none;stroke-opacity:1"
         d="m 188.1755,252.7665 v 5.73612"
         id="path4600" />
    </g>
    <path
       style="fill:none;fill-rule:evenodd;stroke:#ffff00;stroke-width:2.64583302;stroke-linecap:butt;stroke-linejoin:miter;stroke-miterlimit:4;stroke-dasharray:none;stroke-opacity:1"
       d="M 223.36717,73.126355 H 383.34402"
       id="path5109-4-4-0-9-2-3-24"
       inkscape:connector-curvature="0" />
    <path
       inkscape:connector-curvature="0"
       d="m 116.83861,-45.259495 c 20.05453,-31.43776 20.05453,-31.43776 20.05453,-31.43776"
       id="path3885-6-7"
       style="fill:none;stroke:#000000;stroke-width:0.26458329;stroke-linecap:butt;stroke-linejoin:miter;stroke-miterlimit:4;stroke-dasharray:none;stroke-opacity:1" />
    <path
       style="fill:none;fill-rule:evenodd;stroke:#ffff00;stroke-width:2.64583325;stroke-linecap:butt;stroke-linejoin:miter;stroke-miterlimit:4;stroke-dasharray:none;stroke-opacity:1"
       d="M 382.0211,-52.566505 V 71.803435"
       id="path5109-0-5-3-6-9-0-3-0"
       inkscape:connector-curvature="0" />
    <path
       style="fill:none;fill-rule:evenodd;stroke:#ff0000;stroke-width:2.64583325;stroke-linecap:butt;stroke-linejoin:miter;stroke-miterlimit:4;stroke-dasharray:none;stroke-opacity:1"
       d="M 400.06944,-67.407045 V 87.173135"
       id="path5109-4-7-2-2-9-6-3"
       inkscape:connector-curvature="0" />
    <path
       style="fill:none;fill-rule:evenodd;stroke:#ffff00;stroke-width:2.64583325;stroke-linecap:butt;stroke-linejoin:miter;stroke-miterlimit:4;stroke-dasharray:none;stroke-opacity:1"
       d="M 383.34399,-53.360255 H 304.21367"
       id="path5109-0-5-4-2-9-1"
       inkscape:connector-curvature="0" />
    <path
       style="fill:none;fill-rule:evenodd;stroke:#ff0000;stroke-width:2.64583325;stroke-linecap:butt;stroke-linejoin:miter;stroke-miterlimit:4;stroke-dasharray:none;stroke-opacity:1"
       d="m 314.41903,-66.084125 h 86.97333"
       id="path5109-4-4-0-9-2-3-2-5"
       inkscape:connector-curvature="0" />
    <path
       inkscape:connector-curvature="0"
       d="m 295.95386,-45.262565 c 20.05453,-31.43776 20.05453,-31.43776 20.05453,-31.43776"
       id="path3885-6-7-0"
       style="fill:none;stroke:#000000;stroke-width:0.26458329;stroke-linecap:butt;stroke-linejoin:miter;stroke-miterlimit:4;stroke-dasharray:none;stroke-opacity:1" />
    <path
       style="fill:none;fill-rule:evenodd;stroke:#ffff00;stroke-width:2.64583325;stroke-linecap:butt;stroke-linejoin:miter;stroke-miterlimit:4;stroke-dasharray:none;stroke-opacity:1"
       d="M 260.67321,251.58103 H 60.252067"
       id="path5109-0-5-4-2-4-0-9"
       inkscape:connector-curvature="0" />
    <path
       style="fill:none;fill-rule:evenodd;stroke:#ff0000;stroke-width:2.64583325;stroke-linecap:butt;stroke-linejoin:miter;stroke-miterlimit:4;stroke-dasharray:none;stroke-opacity:1"
       d="M 60.252071,238.328 H 112.57616"
       id="path5109-4-4-0-8-2"
       inkscape:connector-curvature="0" />
    <path
       inkscape:connector-curvature="0"
       d="m 25.111531,260.29312 c 20.05453,-31.43776 20.05453,-31.43776 20.05453,-31.43776"
       id="path3885-6-7-1"
       style="fill:none;stroke:#000000;stroke-width:0.26458329;stroke-linecap:butt;stroke-linejoin:miter;stroke-miterlimit:4;stroke-dasharray:none;stroke-opacity:1" />
    <path
       style="fill:none;fill-rule:evenodd;stroke:#ffff00;stroke-width:2.64583325;stroke-linecap:butt;stroke-linejoin:miter;stroke-miterlimit:4;stroke-dasharray:none;stroke-opacity:1"
       d="M -4.1576628e-7,276.6693 H 288.07371"
       id="path5109-4-4-0-2"
       inkscape:connector-curvature="0" />
    <flowRoot
       xml:space="preserve"
       id="flowRoot4788"
       style="font-style:normal;font-weight:normal;font-size:40px;line-height:1.25;font-family:sans-serif;letter-spacing:0px;word-spacing:0px;fill:#000000;fill-opacity:1;stroke:none"
       transform="matrix(0.26458333,0,0,0.26458333,-156.88605,132.29555)"><flowRegion
         id="flowRegion4790"><rect
           id="rect4792"
           width="116.67262"
           height="93.43911"
           x="673.77173"
           y="402.40854" /></flowRegion><flowPara
         id="flowPara4794">A</flowPara><flowPara
         id="flowPara4796" /></flowRoot>    <path
       style="fill:none;fill-rule:evenodd;stroke:#ffff00;stroke-width:2.64599991;stroke-linecap:butt;stroke-linejoin:miter;stroke-miterlimit:4;stroke-dasharray:none;stroke-opacity:1"
       d="M 476.25,264.83408 H 306.68047"
       id="path5109-0-5-4-2-4-0-9-3"
       inkscape:connector-curvature="0" />
    <path
       style="fill:none;fill-rule:evenodd;stroke:#ffff00;stroke-width:2.64583325;stroke-linecap:butt;stroke-linejoin:miter;stroke-miterlimit:4;stroke-dasharray:none;stroke-opacity:1"
       d="M 476.25,238.32799 H 306.68044"
       id="path5109-0-5-4-2-4-0-9-3-2"
       inkscape:connector-curvature="0" />
    <path
       style="fill:none;fill-rule:evenodd;stroke:#ffff00;stroke-width:2.64583325;stroke-linecap:butt;stroke-linejoin:miter;stroke-miterlimit:4;stroke-dasharray:none;stroke-opacity:1"
       d="M 476.25,211.82191 H 306.68044"
       id="path5109-0-5-4-2-4-0-9-3-0"
       inkscape:connector-curvature="0" />
    <path
       style="fill:none;fill-rule:evenodd;stroke:#ffff00;stroke-width:2.64583325;stroke-linecap:butt;stroke-linejoin:miter;stroke-miterlimit:4;stroke-dasharray:none;stroke-opacity:1"
       d="M 476.25,185.31582 H 260.6732"
       id="path5109-0-5-4-2-4-0-9-3-2-3"
       inkscape:connector-curvature="0" />
    <path
       style="fill:none;fill-rule:evenodd;stroke:#ffff00;stroke-width:2.64583325;stroke-linecap:butt;stroke-linejoin:miter;stroke-miterlimit:4;stroke-dasharray:none;stroke-opacity:1"
       d="M 476.25,158.80975 H 258.02737"
       id="path5109-0-5-4-2-4-0-9-3-09"
       inkscape:connector-curvature="0" />
    <path
       style="fill:none;fill-rule:evenodd;stroke:#ff0000;stroke-width:2.64583302;stroke-linecap:butt;stroke-linejoin:miter;stroke-miterlimit:4;stroke-dasharray:none;stroke-opacity:1"
       d="M 241.46359,145.55668 H 476.25"
       id="path5109-4-4-0-8-2-2-1"
       inkscape:connector-curvature="0" />
    <path
       style="fill:none;fill-rule:evenodd;stroke:#ffff00;stroke-width:2.64583325;stroke-linecap:butt;stroke-linejoin:miter;stroke-miterlimit:4;stroke-dasharray:none;stroke-opacity:1"
       d="m 308.00334,213.14483 v 64.8474"
       id="path5109-0-5-3-6-9-0-3-6-6"
       inkscape:connector-curvature="0" />
    <path
       style="fill:none;fill-rule:evenodd;stroke:#ff0000;stroke-width:2.64583349;stroke-linecap:butt;stroke-linejoin:miter;stroke-miterlimit:4;stroke-dasharray:none;stroke-opacity:1"
       d="m 289.95498,197.24594 v 89.75402"
       id="path5109-4-7-2-2-9-6-1-3"
       inkscape:connector-curvature="0" />
    <g
       id="g15660-4"
       transform="translate(245.6853,166.30711)">
      <path
         inkscape:connector-curvature="0"
         id="path12705-49-7"
         d="m 60.52938,82.400749 v 5.746294"
         style="fill:none;fill-rule:evenodd;stroke:#000000;stroke-width:0.18520832;stroke-linecap:butt;stroke-linejoin:miter;stroke-miterlimit:4;stroke-dasharray:none;stroke-opacity:1" />
      <path
         inkscape:connector-curvature="0"
         id="path12705-4-6-7"
         d="m 64.106694,82.400749 v 5.746294"
         style="fill:none;fill-rule:evenodd;stroke:#000000;stroke-width:0.18520834;stroke-linecap:butt;stroke-linejoin:miter;stroke-miterlimit:4;stroke-dasharray:none;stroke-opacity:1" />
    </g>
    <g
       id="g15660-4-6"
       transform="translate(245.6853,139.80104)">
      <path
         inkscape:connector-curvature="0"
         id="path12705-49-7-5"
         d="m 60.52938,82.400749 v 5.746294"
         style="fill:none;fill-rule:evenodd;stroke:#000000;stroke-width:0.18520832;stroke-linecap:butt;stroke-linejoin:miter;stroke-miterlimit:4;stroke-dasharray:none;stroke-opacity:1" />
      <path
         inkscape:connector-curvature="0"
         id="path12705-4-6-7-1"
         d="m 64.106694,82.400749 v 5.746294"
         style="fill:none;fill-rule:evenodd;stroke:#000000;stroke-width:0.18520834;stroke-linecap:butt;stroke-linejoin:miter;stroke-miterlimit:4;stroke-dasharray:none;stroke-opacity:1" />
    </g>
    <g
       id="g15660-4-4"
       transform="translate(227.63695,191.39541)">
      <path
         inkscape:connector-curvature="0"
         id="path12705-49-7-4"
         d="m 60.52938,82.400749 v 5.746294"
         style="fill:none;fill-rule:evenodd;stroke:#000000;stroke-width:0.18520832;stroke-linecap:butt;stroke-linejoin:miter;stroke-miterlimit:4;stroke-dasharray:none;stroke-opacity:1" />
      <path
         inkscape:connector-curvature="0"
         id="path12705-4-6-7-9"
         d="m 64.106694,82.400749 v 5.746294"
         style="fill:none;fill-rule:evenodd;stroke:#000000;stroke-width:0.18520834;stroke-linecap:butt;stroke-linejoin:miter;stroke-miterlimit:4;stroke-dasharray:none;stroke-opacity:1" />
    </g>
    <path
       style="fill:none;fill-rule:evenodd;stroke:#ff0000;stroke-width:2.64583325;stroke-linecap:butt;stroke-linejoin:miter;stroke-miterlimit:4;stroke-dasharray:none;stroke-opacity:1"
       d="M 261.23155,172.06278 H 476.25"
       id="path5109-4-4-0-8-2-2-1-0"
       inkscape:connector-curvature="0" />
    <path
       style="fill:none;fill-rule:evenodd;stroke:#ff0000;stroke-width:2.64583349;stroke-linecap:butt;stroke-linejoin:miter;stroke-miterlimit:4;stroke-dasharray:none;stroke-opacity:1"
       d="M 291.2779,198.56887 H 476.25"
       id="path5109-4-4-0-8-2-2-1-1"
       inkscape:connector-curvature="0" />
    <path
       style="fill:none;fill-rule:evenodd;stroke:#ff0000;stroke-width:2.64583325;stroke-linecap:butt;stroke-linejoin:miter;stroke-miterlimit:4;stroke-dasharray:none;stroke-opacity:1"
       d="M 309.88461,225.07495 H 476.25"
       id="path5109-4-4-0-8-2-2-1-8"
       inkscape:connector-curvature="0" />
    <path
       style="fill:none;fill-rule:evenodd;stroke:#ff0000;stroke-width:2.64583325;stroke-linecap:butt;stroke-linejoin:miter;stroke-miterlimit:4;stroke-dasharray:none;stroke-opacity:1"
       d="m 289.25518,225.07494 h 16.86691"
       id="path5109-4-4-0-8-2-2-1-2-68"
       inkscape:connector-curvature="0" />
    <path
       style="fill:none;fill-rule:evenodd;stroke:#ff0000;stroke-width:2.64583325;stroke-linecap:butt;stroke-linejoin:miter;stroke-miterlimit:4;stroke-dasharray:none;stroke-opacity:1"
       d="M 309.88459,251.581 H 476.25"
       id="path5109-4-4-0-8-2-2-1-14"
       inkscape:connector-curvature="0" />
    <path
       style="fill:none;fill-rule:evenodd;stroke:#ff0000;stroke-width:2.64583325;stroke-linecap:butt;stroke-linejoin:miter;stroke-miterlimit:4;stroke-dasharray:none;stroke-opacity:1"
       d="m 289.25518,251.58101 h 16.86691"
       id="path5109-4-4-0-8-2-2-1-2-2"
       inkscape:connector-curvature="0" />
    <path
       style="fill:none;fill-rule:evenodd;stroke:#ffff00;stroke-width:2.64583325;stroke-linecap:butt;stroke-linejoin:miter;stroke-miterlimit:4;stroke-dasharray:none;stroke-opacity:1"
       d="m 114.45742,200.26322 v 52.64073"
       id="path5109-0-5-3-6-9-0-3-6-0"
       inkscape:connector-curvature="0" />
    <path
       style="fill:none;fill-rule:evenodd;stroke:#ff0000;stroke-width:2.64583349;stroke-linecap:butt;stroke-linejoin:miter;stroke-miterlimit:4;stroke-dasharray:none;stroke-opacity:1"
       d="m 96.409056,187.01017 v 49.99491"
       id="path5109-4-7-2-2-9-6-1-9"
       inkscape:connector-curvature="0" />
    <path
       style="fill:none;fill-rule:evenodd;stroke:#ff0000;stroke-width:2.64583325;stroke-linecap:butt;stroke-linejoin:miter;stroke-miterlimit:4;stroke-dasharray:none;stroke-opacity:1"
       d="M 116.24608,238.328 H 242.62486"
       id="path5109-4-4-0-8-2-5"
       inkscape:connector-curvature="0" />
    <g
       id="g15660"
       transform="translate(52.139383,153.05409)">
      <path
         inkscape:connector-curvature="0"
         id="path12705-49"
         d="m 60.52938,82.400749 v 5.746294"
         style="fill:none;fill-rule:evenodd;stroke:#000000;stroke-width:0.18520832;stroke-linecap:butt;stroke-linejoin:miter;stroke-miterlimit:4;stroke-dasharray:none;stroke-opacity:1" />
      <path
         inkscape:connector-curvature="0"
         id="path12705-4-6"
         d="m 64.106694,82.400749 v 5.746294"
         style="fill:none;fill-rule:evenodd;stroke:#000000;stroke-width:0.18520834;stroke-linecap:butt;stroke-linejoin:miter;stroke-miterlimit:4;stroke-dasharray:none;stroke-opacity:1" />
    </g>
    <path
       style="fill:none;fill-rule:evenodd;stroke:#ffff00;stroke-width:2.64583325;stroke-linecap:butt;stroke-linejoin:miter;stroke-miterlimit:4;stroke-dasharray:none;stroke-opacity:1"
       d="M 187.25441,201.58613 H 113.1345"
       id="path5109-0-5-4-2-4-0-9-6"
       inkscape:connector-curvature="0" />
    <path
       style="fill:none;fill-rule:evenodd;stroke:#ff0000;stroke-width:2.64583325;stroke-linecap:butt;stroke-linejoin:miter;stroke-miterlimit:4;stroke-dasharray:none;stroke-opacity:1"
       d="M 95.086139,188.33309 H 187.25441"
       id="path5109-4-4-0-8-2-5-4"
       inkscape:connector-curvature="0" />
    <path
       inkscape:connector-curvature="0"
       d="m 198.71553,210.29822 c 20.05453,-31.43776 20.05453,-31.43776 20.05453,-31.43776"
       id="path3885-6-7-1-6"
       style="fill:none;stroke:#000000;stroke-width:0.26458329;stroke-linecap:butt;stroke-linejoin:miter;stroke-miterlimit:4;stroke-dasharray:none;stroke-opacity:1" />
    <flowRoot
       xml:space="preserve"
       id="flowRoot4788-7"
       style="font-style:normal;font-weight:normal;font-size:40px;line-height:1.25;font-family:sans-serif;letter-spacing:0px;word-spacing:0px;fill:#000000;fill-opacity:1;stroke:none"
       transform="matrix(0.26458333,0,0,0.26458333,36.677729,82.300652)"><flowRegion
         id="flowRegion4790-5"><rect
           id="rect4792-1"
           width="116.67262"
           height="93.43911"
           x="673.77173"
           y="402.40854" /></flowRegion><flowPara
         id="flowPara4794-1">B</flowPara><flowPara
         id="flowPara4796-4" /></flowRoot>    <path
       style="fill:none;fill-rule:evenodd;stroke:#ffff00;stroke-width:2.64599991;stroke-linecap:butt;stroke-linejoin:miter;stroke-miterlimit:4;stroke-dasharray:none;stroke-opacity:1"
       d="M 291.83625,276.6693 H 476.25"
       id="path5109-4-4-0-2-3"
       inkscape:connector-curvature="0" />
    <path
       style="fill:none;fill-rule:evenodd;stroke:#ffff00;stroke-width:2.64583349;stroke-linecap:butt;stroke-linejoin:miter;stroke-miterlimit:4;stroke-dasharray:none;stroke-opacity:1"
       d="m 259.35029,160.13266 v 92.77128"
       id="path5109-0-5-3-6-9-0-3-6-6-8"
       inkscape:connector-curvature="0" />
    <path
       style="fill:none;fill-rule:evenodd;stroke:#ff0000;stroke-width:2.64583373;stroke-linecap:butt;stroke-linejoin:miter;stroke-miterlimit:4;stroke-dasharray:none;stroke-opacity:1"
       d="m 241.30194,144.23377 v 95.41715"
       id="path5109-4-7-2-2-9-6-1-3-5"
       inkscape:connector-curvature="0" />
    <g
       id="g15660-4-6-9"
       transform="translate(197.03225,86.788884)">
      <path
         inkscape:connector-curvature="0"
         id="path12705-49-7-5-9"
         d="m 60.52938,82.400749 v 5.746294"
         style="fill:none;fill-rule:evenodd;stroke:#000000;stroke-width:0.18520832;stroke-linecap:butt;stroke-linejoin:miter;stroke-miterlimit:4;stroke-dasharray:none;stroke-opacity:1" />
      <path
         inkscape:connector-curvature="0"
         id="path12705-4-6-7-1-1"
         d="m 64.106694,82.400749 v 5.746294"
         style="fill:none;fill-rule:evenodd;stroke:#000000;stroke-width:0.18520834;stroke-linecap:butt;stroke-linejoin:miter;stroke-miterlimit:4;stroke-dasharray:none;stroke-opacity:1" />
    </g>
    <path
       style="fill:none;fill-rule:evenodd;stroke:#ff0000;stroke-width:2.64583325;stroke-linecap:butt;stroke-linejoin:miter;stroke-miterlimit:4;stroke-dasharray:none;stroke-opacity:1"
       d="m 242.62486,172.06278 h 14.84417"
       id="path5109-4-4-0-8-2-2-1-0-4"
       inkscape:connector-curvature="0" />
    <polygon
       transform="matrix(0.24848905,0,0,0.23303061,191.89363,185.53672)"
       style="fill:#ff0000;stroke:#ff0000;stroke-width:1.09951794;stroke-miterlimit:10"
       stroke-miterlimit="10"
       points="12,22 12,17 2,17 2,7 12,7 12,2 22,12 "
       id="polygon2-8-5" />
    <polygon
       transform="matrix(-0.26458333,0,0,-0.26458333,198.07483,204.76113)"
       style="fill:#ffff00;fill-opacity:1;stroke-miterlimit:10"
       stroke-miterlimit="10"
       points="12,7 12,2 22,12 12,22 12,17 2,17 2,7 "
       id="polygon2-84" />
    <polygon
       transform="matrix(0.24848905,0,0,0.23303061,49.591632,235.53163)"
       style="fill:#ff0000;stroke:#ff0000;stroke-width:1.09951794;stroke-miterlimit:10"
       stroke-miterlimit="10"
       points="22,12 12,22 12,17 2,17 2,7 12,7 12,2 "
       id="polygon2-8-5-8" />
    <polygon
       transform="matrix(-0.26458333,0,0,-0.26458333,55.772833,254.75604)"
       style="fill:#ffff00;fill-opacity:1;stroke-miterlimit:10"
       stroke-miterlimit="10"
       points="2,7 12,7 12,2 22,12 12,22 12,17 2,17 "
       id="polygon2-84-1" />
  </g>
</svg>
