<?xml version="1.0" encoding="UTF-8" standalone="no"?>
<!-- Created with Inkscape (http://www.inkscape.org/) -->

<svg
   xmlns:atv="http://webmi.atvise.com/2007/svgext"
   xmlns:osb="http://www.openswatchbook.org/uri/2009/osb"
   xmlns:dc="http://purl.org/dc/elements/1.1/"
   xmlns:cc="http://creativecommons.org/ns#"
   xmlns:rdf="http://www.w3.org/1999/02/22-rdf-syntax-ns#"
   xmlns:svg="http://www.w3.org/2000/svg"
   xmlns="http://www.w3.org/2000/svg"
   xmlns:xlink="http://www.w3.org/1999/xlink"
   xmlns:sodipodi="http://sodipodi.sourceforge.net/DTD/sodipodi-0.dtd"
   xmlns:inkscape="http://www.inkscape.org/namespaces/inkscape"
   width="100%"
   height="100%"
   viewBox="-9.2603 0 494.7646 187.85417"
   version="1.1"
   id="svg8"
   inkscape:version="0.92.1 r15371"
   sodipodi:docname="1Hotel_2Lueftungen_3L21Sturmlueftung_L21Zentrale_4L21LueftungZentraleSturmlueftungHA_SL01.svg">
  <defs
     id="defs2">
    <linearGradient
       id="linearGradient7016"
       osb:paint="solid">
      <stop
         style="stop-color:#ed8b0d;stop-opacity:1;"
         offset="0"
         id="stop7014" />
    </linearGradient>
    <linearGradient
       x2="95.790497"
       gradientUnits="userSpaceOnUse"
       y2="184.22392"
       x1="-0.31637955"
       y1="184.22392"
       id="linearGradient6902"
       spreadMethod="reflect"
       gradientTransform="matrix(0.79019013,0,0,1.2655182,891.24136,407.83495)">
      <stop
         id="stop6898"
         stop-color="#000000"
         offset="0" />
      <stop
         id="stop6900"
         stop-color="#8c8c8c"
         offset="1"
         style="stop-color:#15202b;stop-opacity:1" />
    </linearGradient>
    <linearGradient
       id="linearGradient6533"
       osb:paint="solid">
      <stop
         style="stop-color:#72c072;stop-opacity:1;"
         offset="0"
         id="stop6531" />
    </linearGradient>
    <linearGradient
       gradientTransform="matrix(0.79019013,0,0,1.2655182,891.24136,407.83495)"
       spreadMethod="reflect"
       id="linearGradient6495"
       y1="184.22392"
       x1="-0.31637955"
       y2="184.22392"
       gradientUnits="userSpaceOnUse"
       x2="95.790497">
      <stop
         offset="0"
         stop-color="#000000"
         id="stop6491" />
      <stop
         offset="1"
         stop-color="#8c8c8c"
         id="stop6493" />
    </linearGradient>
    <linearGradient
       gradientTransform="matrix(0.79019013,0,0,1.2655182,891.24136,407.83495)"
       spreadMethod="reflect"
       id="linearGradient6479"
       y1="184.22392"
       x1="-0.31637955"
       y2="184.22392"
       gradientUnits="userSpaceOnUse"
       x2="95.790497">
      <stop
         offset="0"
         stop-color="#000000"
         id="stop6475"
         style="stop-color:#999999;stop-opacity:1" />
      <stop
         offset="1"
         stop-color="#8c8c8c"
         id="stop6477" />
    </linearGradient>
    <inkscape:path-effect
       effect="spiro"
       id="path-effect6378"
       is_visible="true" />
    <inkscape:path-effect
       effect="spiro"
       id="path-effect6374"
       is_visible="true" />
    <inkscape:path-effect
       effect="spiro"
       id="path-effect6370"
       is_visible="true" />
    <inkscape:perspective
       sodipodi:type="inkscape:persp3d"
       inkscape:vp_x="0 : 93.927085 : 1"
       inkscape:vp_y="0 : 1000 : 0"
       inkscape:vp_z="476.24999 : 93.927085 : 1"
       inkscape:persp3d-origin="238.125 : 62.618057 : 1"
       id="perspective6348" />
    <inkscape:path-effect
       effect="spiro"
       id="path-effect6346"
       is_visible="true" />
    <linearGradient
       gradientTransform="matrix(0.82559229,0,0,1.2112516,891.24136,407.83495)"
       spreadMethod="reflect"
       id="linearGradient6257"
       y1="184.23386"
       x1="0"
       y2="184.23386"
       gradientUnits="userSpaceOnUse"
       x2="91.678764">
      <stop
         offset="0"
         stop-color="#999999"
         id="stop6253" />
      <stop
         offset="1"
         stop-color="#f2f2f2"
         id="stop6255"
         style="stop-color:#ef1b1b;stop-opacity:1" />
    </linearGradient>
    <linearGradient
       gradientTransform="matrix(0.82559229,0,0,1.2112516,891.24136,407.83495)"
       spreadMethod="reflect"
       id="linearGradient6249"
       y1="184.23386"
       x1="0"
       y2="184.23386"
       gradientUnits="userSpaceOnUse"
       x2="91.678764">
      <stop
         offset="0"
         stop-color="#999999"
         id="stop6245"
         style="stop-color:#d62424;stop-opacity:1" />
      <stop
         offset="1"
         stop-color="#f2f2f2"
         id="stop6247" />
    </linearGradient>
    <linearGradient
       x2="95.790497"
       gradientUnits="userSpaceOnUse"
       y2="184.22392"
       x1="-0.31637955"
       y1="184.22392"
       id="id_36_fill_gradient-12"
       spreadMethod="reflect"
       gradientTransform="matrix(0.79019013,0,0,1.2655182,891.24136,407.83495)">
      <stop
         id="stop5900"
         stop-color="#000000"
         offset="0" />
      <stop
         id="stop5902"
         stop-color="#8c8c8c"
         offset="1" />
    </linearGradient>
    <linearGradient
       x2="91.678764"
       gradientUnits="userSpaceOnUse"
       y2="184.23386"
       x1="0"
       y1="184.23386"
       id="id_17_fill_gradient-7"
       spreadMethod="reflect"
       gradientTransform="matrix(0.82559229,0,0,1.2112516,891.24136,407.83495)">
      <stop
         id="stop5895"
         stop-color="#999999"
         offset="0" />
      <stop
         id="stop5897"
         stop-color="#f2f2f2"
         offset="1" />
    </linearGradient>
    <linearGradient
       inkscape:collect="always"
       xlink:href="#id_17_fill_gradient-7"
       id="linearGradient6447"
       gradientUnits="userSpaceOnUse"
       gradientTransform="matrix(0.21843796,0,0,0.32047698,-51.939784,31.771168)"
       x1="-1017.7682"
       y1="178.46416"
       x2="-919.02661"
       y2="178.46416"
       spreadMethod="reflect" />
    <linearGradient
       inkscape:collect="always"
       xlink:href="#linearGradient6495"
       id="linearGradient6489"
       x1="-233.41592"
       y1="236.57091"
       x2="-191.00809"
       y2="236.57091"
       gradientUnits="userSpaceOnUse"
       spreadMethod="pad" />
    <inkscape:path-effect
       effect="spiro"
       id="path-effect6370-6"
       is_visible="true" />
    <inkscape:path-effect
       effect="spiro"
       id="path-effect6374-3"
       is_visible="true" />
    <inkscape:path-effect
       effect="spiro"
       id="path-effect6378-0"
       is_visible="true" />
    <inkscape:path-effect
       effect="spiro"
       id="path-effect6370-6-9"
       is_visible="true" />
    <inkscape:path-effect
       effect="spiro"
       id="path-effect6374-3-3"
       is_visible="true" />
    <inkscape:path-effect
       effect="spiro"
       id="path-effect6378-0-5"
       is_visible="true" />
    <linearGradient
       inkscape:collect="always"
       xlink:href="#linearGradient6495"
       id="linearGradient6896"
       x1="-233.41592"
       y1="236.57091"
       x2="-191.00809"
       y2="236.57091"
       gradientUnits="userSpaceOnUse"
       spreadMethod="pad" />
    <pattern
       y="0"
       x="0"
       height="6"
       width="6"
       patternUnits="userSpaceOnUse"
       id="EMFhbasepattern" />
    <pattern
       y="0"
       x="0"
       height="6"
       width="6"
       patternUnits="userSpaceOnUse"
       id="EMFhbasepattern-1" />
    <pattern
       y="0"
       x="0"
       height="6"
       width="6"
       patternUnits="userSpaceOnUse"
       id="EMFhbasepattern-7" />
    <linearGradient
       x2="0.69862998"
       gradientUnits="objectBoundingBox"
       y2="0.52054799"
       x1="0.84931499"
       y1="0.87671202"
       id="id_4_fill_gradient">
      <stop
         id="stop15847"
         stop-color="#bdbdbd"
         offset="0.5" />
      <stop
         id="stop15849"
         stop-color="#cccccc"
         offset="1" />
    </linearGradient>
  </defs>
  <sodipodi:namedview
     id="base"
     pagecolor="#ffffff"
     bordercolor="#666666"
     borderopacity="1.0"
     inkscape:pageopacity="0.0"
     inkscape:pageshadow="2"
     inkscape:zoom="0.49497475"
     inkscape:cx="991.36059"
     inkscape:cy="578.09812"
     inkscape:document-units="mm"
     inkscape:current-layer="layer1"
     showgrid="false"
     units="px"
     inkscape:snap-grids="true"
     inkscape:snap-center="true"
     inkscape:snap-object-midpoints="true"
     inkscape:snap-midpoints="true"
     inkscape:snap-intersection-paths="true"
     inkscape:snap-bbox="true"
     inkscape:bbox-paths="true"
     inkscape:bbox-nodes="true"
     inkscape:snap-bbox-edge-midpoints="true"
     inkscape:snap-bbox-midpoints="true"
     inkscape:measure-start="432.595,385.909"
     inkscape:measure-end="478.854,385.909"
     inkscape:window-width="1920"
     inkscape:window-height="1018"
     inkscape:window-x="-8"
     inkscape:window-y="-8"
     inkscape:window-maximized="1"
     showguides="true"
     inkscape:snap-page="true"
     inkscape:snap-smooth-nodes="false"
     inkscape:object-paths="false">
    <inkscape:grid
       type="xygrid"
       id="grid6774" />
  </sodipodi:namedview>
  <metadata
     id="metadata5">
    <rdf:RDF>
      <cc:Work
         rdf:about="">
        <dc:format>image/svg+xml</dc:format>
        <dc:type
           rdf:resource="http://purl.org/dc/dcmitype/StillImage" />
        <dc:title />
      </cc:Work>
    </rdf:RDF>
  </metadata>
  <g
     inkscape:label="Ebene 1"
     inkscape:groupmode="layer"
     id="layer1"
     transform="translate(0,-109.14582)">
    <path
       style="fill:none;fill-rule:evenodd;stroke:#ffff00;stroke-width:2.64583397;stroke-linecap:butt;stroke-linejoin:miter;stroke-miterlimit:4;stroke-dasharray:none;stroke-opacity:1"
       d="M 905.631,63.433511 H 389.69345"
       id="path5109-0-5-4-2"
       inkscape:connector-curvature="0" />
    <g
       id="g64380-4"
       transform="matrix(0.26458333,0,0,0.26458333,-246.97037,104.95684)">
      <g
         id="g64347-9">
        <rect
           style="color:#000000;display:inline;overflow:visible;visibility:visible;fill:#000100;fill-opacity:1;fill-rule:nonzero;stroke:#000000;stroke-width:1;stroke-linecap:butt;stroke-linejoin:miter;stroke-miterlimit:4;stroke-dasharray:none;stroke-dashoffset:0;stroke-opacity:1;marker:none;enable-background:accumulate"
           id="rect64296-2-7"
           width="5.6421356"
           height="35.056572"
           x="128.54912"
           y="656.01727" />
        <rect
           style="color:#000000;display:inline;overflow:visible;visibility:visible;fill:#000100;fill-opacity:1;fill-rule:nonzero;stroke:#000000;stroke-width:1;stroke-linecap:butt;stroke-linejoin:miter;stroke-miterlimit:4;stroke-dasharray:none;stroke-dashoffset:0;stroke-opacity:1;marker:none;enable-background:accumulate"
           id="rect64296-9-3"
           width="5.6421356"
           height="35.056572"
           x="198.85432"
           y="656.01727" />
        <rect
           style="color:#000000;display:inline;overflow:visible;visibility:visible;fill:#000100;fill-opacity:1;fill-rule:nonzero;stroke:#000000;stroke-width:1;stroke-linecap:butt;stroke-linejoin:miter;stroke-miterlimit:4;stroke-dasharray:none;stroke-dashoffset:0;stroke-opacity:1;marker:none;enable-background:accumulate"
           id="rect64296-8"
           width="5.6421356"
           height="35.056572"
           x="58.243927"
           y="656.01727" />
      </g>
      <path
         inkscape:connector-curvature="0"
         id="path64373-1"
         d="M 40.919306,691.50002 H 221.82108"
         style="fill:none;fill-rule:evenodd;stroke:#000000;stroke-width:2;stroke-linecap:butt;stroke-linejoin:miter;stroke-miterlimit:4;stroke-dasharray:none;stroke-opacity:1" />
    </g>
    <path
       style="fill:#000000;fill-opacity:1;stroke:url(#linearGradient6489);stroke-width:0.13229167;stroke-linejoin:round;stroke-opacity:1"
       d="m -233.41593,194.81218 h 42.40785 v 83.51746 h -42.40785 z"
       atv:refpy="119.731"
       atv:refpx="74.667"
       id="path5933-0-7-5"
       inkscape:connector-curvature="0" />
    <path
       style="fill:#999999;fill-opacity:1;stroke-width:0.13229167;stroke-linejoin:round;stroke:url(#linearGradient6896)"
       d="m -233.41593,198.36476 h 42.40785 v 76.41231 h -42.40785 z"
       atv:refpy="119.611"
       atv:refpx="74.667"
       id="path5935-2-4-25"
       inkscape:connector-curvature="0" />
    <g
       id="g6386"
       transform="matrix(0.27047495,0,0,0.27047495,-124.70784,211.87579)">
      <path
         inkscape:original-d="m -323.51943,52.962307 c -8.33307,16.666403 -16.66642,33.333072 -25,50.000003"
         inkscape:path-effect="#path-effect6370"
         inkscape:connector-curvature="0"
         id="path6368"
         d="m -323.51943,52.962307 -25,50.000003"
         style="fill:none;stroke:#000000;stroke-width:0.26458332px;stroke-linecap:butt;stroke-linejoin:miter;stroke-opacity:1" />
      <path
         inkscape:original-d="m -348.51943,102.96231 c 16.66693,-2.6e-4 33.33359,-2.6e-4 50.00001,0"
         inkscape:path-effect="#path-effect6374"
         inkscape:connector-curvature="0"
         id="path6372"
         d="m -348.51943,102.96231 h 50.00001"
         style="fill:none;stroke:#000000;stroke-width:0.26458332px;stroke-linecap:butt;stroke-linejoin:miter;stroke-opacity:1" />
      <path
         inkscape:original-d="m -298.51942,102.96231 c -8.33308,-16.666932 -16.6664,-33.3336 -25.00001,-50.000003"
         inkscape:path-effect="#path-effect6378"
         inkscape:connector-curvature="0"
         id="path6376"
         d="M -298.51942,102.96231 -323.51943,52.962307"
         style="fill:none;stroke:#000000;stroke-width:0.26458332px;stroke-linecap:butt;stroke-linejoin:miter;stroke-opacity:1" />
      <path
         inkscape:connector-curvature="0"
         id="path6380"
         d="m -1269.6006,-117.08067 c 25.6258,-51.25262 46.7066,-93.18658 46.8462,-93.18658 0.1396,0 21.2205,41.93396 46.8463,93.18658 l 46.5925,93.186568 h -93.4388 -93.4387 z"
         style="opacity:1;fill:#ff0000;fill-opacity:1;stroke:none;stroke-width:0.25253814;stroke-miterlimit:4;stroke-dasharray:none;stroke-opacity:1"
         transform="matrix(0.26458333,0,0,0.26458333,0,109.14582)" />
    </g>
    <g
       id="g6579">
      <g
         transform="matrix(0.26458333,0,0,0.26458333,-287.81342,-88.877399)"
         id="g64380-2">
        <g
           id="g64347-4">
          <rect
             y="656.01727"
             x="128.54912"
             height="35.056572"
             width="5.6421356"
             id="rect64296-2-5"
             style="color:#000000;display:inline;overflow:visible;visibility:visible;fill:#000100;fill-opacity:1;fill-rule:nonzero;stroke:#000000;stroke-width:1;stroke-linecap:butt;stroke-linejoin:miter;stroke-miterlimit:4;stroke-dasharray:none;stroke-dashoffset:0;stroke-opacity:1;marker:none;enable-background:accumulate" />
          <rect
             y="656.01727"
             x="198.85432"
             height="35.056572"
             width="5.6421356"
             id="rect64296-9-0"
             style="color:#000000;display:inline;overflow:visible;visibility:visible;fill:#000100;fill-opacity:1;fill-rule:nonzero;stroke:#000000;stroke-width:1;stroke-linecap:butt;stroke-linejoin:miter;stroke-miterlimit:4;stroke-dasharray:none;stroke-dashoffset:0;stroke-opacity:1;marker:none;enable-background:accumulate" />
          <rect
             y="656.01727"
             x="58.243927"
             height="35.056572"
             width="5.6421356"
             id="rect64296-3"
             style="color:#000000;display:inline;overflow:visible;visibility:visible;fill:#000100;fill-opacity:1;fill-rule:nonzero;stroke:#000000;stroke-width:1;stroke-linecap:butt;stroke-linejoin:miter;stroke-miterlimit:4;stroke-dasharray:none;stroke-dashoffset:0;stroke-opacity:1;marker:none;enable-background:accumulate" />
        </g>
        <path
           style="fill:none;fill-rule:evenodd;stroke:#000000;stroke-width:2;stroke-linecap:butt;stroke-linejoin:miter;stroke-miterlimit:4;stroke-dasharray:none;stroke-opacity:1"
           d="M 40.919306,691.50002 H 221.82108"
           id="path64373-86"
           inkscape:connector-curvature="0" />
      </g>
      <path
         inkscape:connector-curvature="0"
         id="path5933-0-7-0"
         atv:refpx="74.667"
         atv:refpy="119.731"
         d="m -274.25898,8.3505086 h 42.40785 V 91.867967 h -42.40785 z"
         style="fill:#000000;fill-opacity:1;stroke:#000000;stroke-width:0.13229167;stroke-linejoin:round" />
      <path
         inkscape:connector-curvature="0"
         id="path5935-2-4-1"
         atv:refpx="74.667"
         atv:refpy="119.611"
         d="m -274.19283,11.903079 h 42.40785 v 76.412317 h -42.40785 z"
         style="fill:url(#linearGradient6447);fill-opacity:1;stroke-width:0.13229167;stroke-linejoin:round" />
      <path
         style="opacity:1;fill:#ff0000;fill-opacity:1;stroke:#999999;stroke-width:0.01807243;stroke-miterlimit:4;stroke-dasharray:none;stroke-opacity:1"
         d="m -256.40753,50.109243 c 1.83387,-3.6678 3.34247,-6.66873 3.35246,-6.66873 0.01,0 1.51861,3.00093 3.35247,6.66873 l 3.33431,6.66872 h -6.68678 -6.68676 z"
         id="path6380-2"
         inkscape:connector-curvature="0" />
    </g>
    <path
       style="fill:none;fill-rule:evenodd;stroke:#ffff00;stroke-width:2.64583325;stroke-linecap:butt;stroke-linejoin:miter;stroke-miterlimit:4;stroke-dasharray:none;stroke-opacity:1"
       d="M 76.930922,67.998402 H 186.899"
       id="path5109-4-4-0-9-2-3"
       inkscape:connector-curvature="0" />
    <path
       style="fill:none;fill-rule:evenodd;stroke:#ff0000;stroke-width:1.58749998;stroke-linecap:butt;stroke-linejoin:miter;stroke-miterlimit:4;stroke-dasharray:none;stroke-opacity:1"
       d="m 330.89346,201.47184 v 12.19469"
       id="path5109-0-5-3-6-9-0-3"
       inkscape:connector-curvature="0" />
    <path
       style="fill:none;fill-rule:evenodd;stroke:#ff0000;stroke-width:2.64583349;stroke-linecap:butt;stroke-linejoin:miter;stroke-miterlimit:4;stroke-dasharray:none;stroke-opacity:1"
       d="M 188.78282,-72.534998 V 82.045182"
       id="path5109-4-7-2-2-9-6"
       inkscape:connector-curvature="0" />
    <path
       style="fill:none;fill-rule:evenodd;stroke:#ffff00;stroke-width:2.64583325;stroke-linecap:butt;stroke-linejoin:miter;stroke-miterlimit:4;stroke-dasharray:none;stroke-opacity:1"
       d="M 171.52821,-58.488208 H 92.397891"
       id="path5109-0-5-4-2-9"
       inkscape:connector-curvature="0" />
    <path
       style="fill:none;fill-rule:evenodd;stroke:#ff0000;stroke-width:2.64583325;stroke-linecap:butt;stroke-linejoin:miter;stroke-miterlimit:4;stroke-dasharray:none;stroke-opacity:1"
       d="m 102.60325,-71.212078 h 86.97333"
       id="path5109-4-4-0-9-2-3-2"
       inkscape:connector-curvature="0" />
    <g
       id="g4628"
       transform="translate(2.3958924,-187.63616)">
      <path
         inkscape:connector-curvature="0"
         style="fill:none;stroke:#000000;stroke-width:0.19049859px;stroke-linecap:butt;stroke-linejoin:miter;stroke-miterlimit:4;stroke-dasharray:none;stroke-opacity:1"
         d="m 184.59836,252.7665 v 5.73612"
         id="path4598" />
      <path
         inkscape:connector-curvature="0"
         style="fill:none;stroke:#000000;stroke-width:0.19049859px;stroke-linecap:butt;stroke-linejoin:miter;stroke-miterlimit:4;stroke-dasharray:none;stroke-opacity:1"
         d="m 188.1755,252.7665 v 5.73612"
         id="path4600" />
    </g>
    <path
       style="fill:none;fill-rule:evenodd;stroke:#ffff00;stroke-width:2.64583302;stroke-linecap:butt;stroke-linejoin:miter;stroke-miterlimit:4;stroke-dasharray:none;stroke-opacity:1"
       d="M 190.66664,67.995332 H 350.64348"
       id="path5109-4-4-0-9-2-3-24"
       inkscape:connector-curvature="0" />
    <path
       inkscape:connector-curvature="0"
       d="m 84.138079,-50.390518 c 20.054531,-31.43776 20.054531,-31.43776 20.054531,-31.43776"
       id="path3885-6-7"
       style="fill:none;stroke:#000000;stroke-width:0.26458329;stroke-linecap:butt;stroke-linejoin:miter;stroke-miterlimit:4;stroke-dasharray:none;stroke-opacity:1" />
    <path
       style="fill:none;fill-rule:evenodd;stroke:#ffff00;stroke-width:2.64583325;stroke-linecap:butt;stroke-linejoin:miter;stroke-miterlimit:4;stroke-dasharray:none;stroke-opacity:1"
       d="M 349.32056,-57.697528 V 66.672412"
       id="path5109-0-5-3-6-9-0-3-0"
       inkscape:connector-curvature="0" />
    <path
       style="fill:none;fill-rule:evenodd;stroke:#ff0000;stroke-width:2.64583325;stroke-linecap:butt;stroke-linejoin:miter;stroke-miterlimit:4;stroke-dasharray:none;stroke-opacity:1"
       d="M 367.36892,-72.538068 V 82.042112"
       id="path5109-4-7-2-2-9-6-3"
       inkscape:connector-curvature="0" />
    <path
       style="fill:none;fill-rule:evenodd;stroke:#ffff00;stroke-width:2.64583325;stroke-linecap:butt;stroke-linejoin:miter;stroke-miterlimit:4;stroke-dasharray:none;stroke-opacity:1"
       d="M 350.64346,-58.491278 H 271.51314"
       id="path5109-0-5-4-2-9-1"
       inkscape:connector-curvature="0" />
    <path
       style="fill:none;fill-rule:evenodd;stroke:#ff0000;stroke-width:2.64583325;stroke-linecap:butt;stroke-linejoin:miter;stroke-miterlimit:4;stroke-dasharray:none;stroke-opacity:1"
       d="m 281.7185,-71.215148 h 86.97334"
       id="path5109-4-4-0-9-2-3-2-5"
       inkscape:connector-curvature="0" />
    <path
       inkscape:connector-curvature="0"
       d="m 263.25333,-50.393588 c 20.05453,-31.43776 20.05453,-31.43776 20.05453,-31.43776"
       id="path3885-6-7-0"
       style="fill:none;stroke:#000000;stroke-width:0.26458329;stroke-linecap:butt;stroke-linejoin:miter;stroke-miterlimit:4;stroke-dasharray:none;stroke-opacity:1" />
    <path
       inkscape:connector-curvature="0"
       d="m 633.06,62.110571 v -15.15234 h 20.51095 v 15.15234"
       id="path4504-0-7-5-4-7-5-4"
       style="fill:none;stroke:#000000;stroke-width:0.26458332;stroke-linecap:butt;stroke-linejoin:miter;stroke-miterlimit:4;stroke-dasharray:none;stroke-opacity:1" />
    <rect
       width="9.9562263"
       height="17.186548"
       x="35.124805"
       y="74.635811"
       id="rect3883-7-6-7-5-1-8-4-7-8"
       style="color:#000000;display:inline;overflow:visible;visibility:visible;fill:#d6d6d6;fill-opacity:1;fill-rule:nonzero;stroke:#000000;stroke-width:0.26458332;stroke-linecap:butt;stroke-linejoin:miter;stroke-miterlimit:4;stroke-dasharray:none;stroke-dashoffset:0;stroke-opacity:1;marker:none;enable-background:accumulate" />
    <rect
       style="fill:#d6d6d6;fill-opacity:1;stroke:#d6d6d6;stroke-width:0.26458332;stroke-miterlimit:4;stroke-dasharray:none;stroke-opacity:1"
       id="rect5135-77-0-4-5"
       y="83.164955"
       x="42.103397"
       height="3.5986528"
       width="2.1348906" />
    <rect
       style="fill:#d6d6d6;fill-opacity:1;stroke:#d6d6d6;stroke-width:0.26458332;stroke-miterlimit:4;stroke-dasharray:none;stroke-opacity:1"
       id="rect5135-7-7-2-8-3"
       y="79.694542"
       x="42.100697"
       height="3.5986528"
       width="2.1348906" />
    <path
       inkscape:connector-curvature="0"
       d="m 35.23742,74.62037 c 9.79168,8.59259 9.79168,8.59259 9.79168,8.59259 l -9.85251,8.62487"
       id="path4464-4-1-1-7-9-9-5"
       style="fill:none;stroke:#000000;stroke-width:0.26458332;stroke-linecap:butt;stroke-linejoin:miter;stroke-miterlimit:4;stroke-dasharray:none;stroke-opacity:1" />
    <path
       inkscape:connector-curvature="0"
       d="m 633.06,6.1699506 v -15.15234 h 20.51095 v 15.15234"
       id="path4504-0-7-5-4-7-5-4-7"
       style="fill:none;stroke:#000000;stroke-width:0.26458332;stroke-linecap:butt;stroke-linejoin:miter;stroke-miterlimit:4;stroke-dasharray:none;stroke-opacity:1" />
    <path
       style="fill:none;fill-rule:evenodd;stroke:#00ff00;stroke-width:2.64583302;stroke-linecap:butt;stroke-linejoin:miter;stroke-miterlimit:4;stroke-dasharray:none;stroke-opacity:1"
       d="M 905.25297,7.4928706 H 390.07143"
       id="path5109-0-5-4-2-3"
       inkscape:connector-curvature="0" />
    <g
       id="g4699"
       transform="matrix(0.53165493,0,0,0.53165493,-232.87344,184.11952)"
       style="stroke-width:1.88091922">
      <circle
         atv:refpy="56.142"
         atv:refpx="56.517"
         id="id_26-083"
         cy="147.34462"
         cx="306.88754"
         r="14.930358"
         style="fill:#7f7f7f;stroke:#000000;stroke-width:0.24882993;stroke-linejoin:round" />
      <path
         d="m 298.12322,152.29603 8.66484,-5.00115 -2.62413,9.55648 c 0,0 -2.17858,-0.29713 -3.61474,-1.68354 -1.4359,-1.38642 -2.52519,-2.77284 -2.42597,-2.87179"
         atv:refpy="74.01300000000001"
         atv:refpx="39.755"
         id="id_31-602"
         inkscape:connector-curvature="0"
         style="fill:#b2b2b2;stroke:#000000;stroke-width:0.24882993;stroke-linejoin:round" />
      <path
         d="m 306.90686,147.38404 2.53524,-9.70492 c 0,0 1.54464,0.31671 3.4462,1.7825 1.90129,1.46553 2.69345,3.08981 2.69345,3.08981 0,0 -8.67489,4.87203 -8.67489,4.83261"
         atv:refpy="37.953"
         atv:refpx="72.985"
         id="id_28-860"
         inkscape:connector-curvature="0"
         style="fill:#b2b2b2;stroke:#000000;stroke-width:0.24882993;stroke-linejoin:round" />
      <path
         d="m 306.78833,147.29514 9.6057,2.52492 c 0,0 -0.44556,2.07989 -1.63381,3.51578 -1.18851,1.4359 -2.971,2.57466 -2.971,2.57466 0,0 -4.90194,-8.61536 -5.00089,-8.61536"
         atv:refpy="72.235"
         atv:refpx="74.294"
         id="id_30-355"
         inkscape:connector-curvature="0"
         style="fill:#b2b2b2;stroke:#000000;stroke-width:0.24882993;stroke-linejoin:round" />
      <path
         d="m 297.3308,144.9676 9.55648,2.42623 -5.14958,-8.61536 c 0,0 -2.10635,1.54067 -2.94799,2.72917 -0.84191,1.18825 -1.60735,3.5097 -1.45891,3.45996"
         atv:refpy="40.048"
         atv:refpx="38.422"
         id="id_32-705"
         inkscape:connector-curvature="0"
         style="fill:#b2b2b2;stroke:#000000;stroke-width:0.24882993;stroke-linejoin:round" />
      <circle
         atv:refpy="56.136"
         atv:refpx="56.436"
         id="id_21-549"
         cy="147.34303"
         cx="306.86612"
         r="3.097477"
         style="fill:#4c4c4c;stroke:#000000;stroke-width:0.24882993;stroke-linejoin:round" />
      <path
         d="m 306.86082,144.90225 v 2.4175 l -2.38522,-0.63289 c 0,0 0.22728,-0.81121 0.8763,-1.28164 0.64903,-0.47043 1.50892,-0.50297 1.50892,-0.50297"
         atv:refpy="51.479"
         atv:refpx="51.909"
         id="id_34-273"
         inkscape:connector-curvature="0"
         style="fill:#e5e5e5;stroke:none;stroke-width:0.24882993;stroke-linejoin:round" />
      <path
         d="m 306.86082,147.33615 2.36882,0.61648 c 0,0 -0.0812,0.68157 -0.84376,1.33032 -0.76253,0.64903 -1.52506,0.5842 -1.52506,0.5842 0,0 0,-2.56354 0,-2.531"
         atv:refpy="60.895"
         atv:refpx="60.892"
         id="id_35-804"
         inkscape:connector-curvature="0"
         style="fill:#333333;stroke:none;stroke-width:0.24882993;stroke-linejoin:round" />
      <path
         d="m 316.09716,138.00456 c 0,0 3.48589,3.16892 3.72348,8.5561 0.23786,5.38718 -2.85194,8.67516 -2.85194,8.71458 0,0.0397 -2.85221,4.33758 -8.10101,4.98131 -5.24828,0.64373 -8.91223,-1.9312 -8.91223,-1.9312 0,0 -2.01824,-1.43695 -2.2778,-1.78249"
         atv:refpy="63.088"
         atv:refpx="63.39"
         id="id_36-8891"
         inkscape:connector-curvature="0"
         style="fill:none;stroke:#ffffff;stroke-width:0.24882993;stroke-linejoin:round" />
      <path
         d="m 297.72714,156.59472 c 0,0 -3.48562,-3.16892 -3.72321,-8.5561 -0.23787,-5.38718 2.85141,-8.67542 2.85141,-8.71485 0,-0.0397 2.85221,-4.33731 8.10128,-4.98104 5.24827,-0.64373 8.91222,1.93119 8.91222,1.93119 0,0 2.01824,1.43695 2.2778,1.7825"
         atv:refpy="48.856"
         atv:refpx="49.832"
         id="id_37-065"
         inkscape:connector-curvature="0"
         style="fill:none;stroke:#000000;stroke-width:0.24882993;stroke-linejoin:round" />
    </g>
    <g
       id="g4855"
       transform="matrix(0.44851735,0,0,0.44851735,-56.339027,147.53116)"
       style="stroke-width:2.22956824">
      <circle
         atv:refpy="74.987"
         atv:refpx="74.614"
         id="id_35-6"
         cy="249.35471"
         cx="-83.996582"
         r="18.162619"
         style="fill:#7f7f7f;stroke:#000000;stroke-width:0.29495326" />
      <circle
         atv:refpy="74.8"
         atv:refpx="74.614"
         id="id_34-3"
         cy="249.30522"
         cx="-83.996582"
         r="17.273283"
         style="fill:#191919;stroke:#000000;stroke-width:0.29495326" />
      <g
         transform="matrix(-0.12713229,0.23203958,-0.23203958,-0.12713229,-21.680781,231.31412)"
         atv:refpy="97.68899999999999"
         atv:refpx="102.806"
         id="id_42-3"
         style="stroke-width:2.22956824">
        <path
           d="m 164.843,112.205 v 51.705 h 20.921 v -51.705 z"
           atv:refpy="138.061"
           atv:refpx="175.306"
           id="id_40-4"
           inkscape:connector-curvature="0"
           style="fill:#b2b2b2;stroke:#000000;stroke-width:1.11478412" />
        <path
           d="m 164.846,164.114 c 0,0 20.959,0 21.055,0 0.095,0 8.193,-13.052 7.907,-25.914 -0.285,-12.862 -7.717,-25.723 -7.812,-25.723 -0.095,0 -20.864,-0.096 -20.864,-0.096 0,0 8.289,12.005 7.622,25.343 -0.667,13.338 -7.717,26.485 -7.908,26.39"
           atv:refpy="138.249"
           atv:refpx="179.334"
           id="id_41-2"
           inkscape:connector-curvature="0"
           style="fill:#cccccc;stroke:#000000;stroke-width:1.11478412" />
      </g>
      <g
         transform="matrix(0.13469937,0.22772687,-0.22772687,0.13469937,-86.882686,199.20373)"
         atv:refpy="60.718"
         atv:refpx="109.178"
         id="id_39-6"
         style="stroke-width:2.22956824">
        <path
           d="m 159.528,24.134 v 51.705 h 20.921 V 24.134 Z"
           atv:refpy="49.99"
           atv:refpx="169.991"
           id="id_37-3"
           inkscape:connector-curvature="0"
           style="fill:#b2b2b2;stroke:#000000;stroke-width:1.11478412" />
        <path
           d="m 159.531,76.043 c 0,0 20.959,0 21.055,0 0.095,0 8.193,-13.052 7.907,-25.914 -0.285,-12.862 -7.717,-25.723 -7.812,-25.723 -0.095,0 -20.864,-0.096 -20.864,-0.096 0,0 8.289,12.005 7.622,25.343 -0.667,13.338 -7.717,26.485 -7.908,26.39"
           atv:refpy="50.178"
           atv:refpx="174.019"
           id="id_38-5"
           inkscape:connector-curvature="0"
           style="fill:#cccccc;stroke:#000000;stroke-width:1.11478412" />
      </g>
      <path
         d="m -86.710681,232.85105 v 13.68055 h 5.535613 v -13.68055 z"
         atv:refpy="38.468"
         atv:refpx="74.821"
         id="id_16-04"
         inkscape:connector-curvature="0"
         style="fill:#b2b2b2;stroke:#000000;stroke-width:0.29495326" />
      <path
         d="m -86.709887,246.58531 c 0,0 5.545667,0 5.570802,0 0.02514,0 2.167731,-3.45334 2.092061,-6.85615 -0.07541,-3.40307 -2.041525,-6.80587 -2.066925,-6.80587 -0.02514,0 -5.520267,-0.0254 -5.520267,-0.0254 0,0 2.193131,3.17605 2.016654,6.70507 -0.176477,3.52901 -2.041789,7.00749 -2.092325,6.98235"
         atv:refpy="38.657"
         atv:refpx="78.848"
         id="id_36-25"
         inkscape:connector-curvature="0"
         style="fill:#cccccc;stroke:#000000;stroke-width:0.29495326" />
      <g
         transform="matrix(0.13559896,-0.22719771,0.22719771,0.13559896,-88.191051,243.85838)"
         atv:refpy="53.496"
         atv:refpx="45.646"
         id="id_53-28"
         style="stroke-width:2.22956824">
        <path
           d="M -20.591,-37.584 V 14.119 H 0.329 V -37.584 Z"
           atv:refpy="-11.728"
           atv:refpx="-10.128"
           id="id_51-83"
           inkscape:connector-curvature="0"
           style="fill:#b2b2b2;stroke:#000000;stroke-width:1.11478412" />
        <path
           d="m -20.588,14.323 c 0,0 20.958,0 21.054,0 0.095,0 8.192,-13.052 7.906,-25.911 -0.284,-12.863 -7.717,-25.724 -7.811,-25.724 -0.095,0 -20.863,-0.096 -20.863,-0.096 0,0 8.289,12.005 7.622,25.344 -0.667,13.335 -7.717,26.482 -7.908,26.387"
           atv:refpy="-11.54"
           atv:refpx="-6.1"
           id="id_52-89"
           inkscape:connector-curvature="0"
           style="fill:#cccccc;stroke:#000000;stroke-width:1.11478412" />
      </g>
      <g
         transform="matrix(-0.13313833,-0.22865291,0.22865291,-0.13313833,-113.08252,262.75516)"
         atv:refpy="87.538"
         atv:refpx="40.741"
         id="id_50-8"
         style="stroke-width:2.22956824">
        <path
           d="m -19.835,58.941 v 51.705 H 1.085 V 58.941 Z"
           atv:refpy="84.797"
           atv:refpx="-9.372"
           id="id_48-53"
           inkscape:connector-curvature="0"
           style="fill:#b2b2b2;stroke:#000000;stroke-width:1.11478412" />
        <path
           d="m -19.832,110.85 c 0,0 20.958,0 21.054,0 0.095,0 8.193,-13.052 7.907,-25.914 C 8.844,72.074 1.412,59.213 1.317,59.213 c -0.095,0 -20.863,-0.096 -20.863,-0.096 0,0 8.289,12.005 7.622,25.343 -0.667,13.338 -7.717,26.485 -7.908,26.39"
           atv:refpy="84.985"
           atv:refpx="-5.344"
           id="id_49-22"
           inkscape:connector-curvature="0"
           style="fill:#cccccc;stroke:#000000;stroke-width:1.11478412" />
      </g>
      <g
         transform="matrix(-0.26458333,0,0,0.26458333,-90.629662,239.92231)"
         atv:refpy="110.569"
         atv:refpx="69.024"
         id="id_47-13"
         style="stroke-width:2.22956824">
        <path
           d="m -33.965,45.276 v 51.705 h 20.921 V 45.276 Z"
           atv:refpy="71.13200000000001"
           atv:refpx="-23.502"
           id="id_45-20"
           inkscape:connector-curvature="0"
           style="fill:#b2b2b2;stroke:#000000;stroke-width:1.11478412" />
        <path
           d="m -33.962,97.185 c 0,0 20.959,0 21.055,0 0.095,0 8.193,-13.052 7.907,-25.914 -0.285,-12.862 -7.717,-25.723 -7.812,-25.723 -0.095,0 -20.864,-0.096 -20.864,-0.096 0,0 8.289,12.005 7.622,25.343 -0.667,13.338 -7.717,26.485 -7.908,26.39"
           atv:refpy="71.31999999999999"
           atv:refpx="-19.474"
           id="id_46-6"
           inkscape:connector-curvature="0"
           style="fill:#cccccc;stroke:#000000;stroke-width:1.11478412" />
      </g>
      <circle
         atv:refpy="74.819"
         atv:refpx="74.819"
         id="id_25-51"
         cy="249.31"
         cx="-83.942612"
         r="4.8233538"
         style="fill:#666666;stroke:#000000;stroke-width:0.29495326" />
      <circle
         atv:refpy="74.819"
         atv:refpx="74.819"
         id="id_26-41"
         cy="249.31"
         cx="-83.942612"
         r="4.1116247"
         style="fill:#e5e5e5;stroke-width:0.29495326" />
      <circle
         atv:refpy="74.819"
         atv:refpx="74.819"
         id="id_27-95"
         cy="249.31"
         cx="-83.942612"
         r="1.3438188"
         style="fill:#7f7f7f;stroke-width:0.29495326" />
    </g>
    <rect
       width="128.7896"
       height="43.866463"
       x="42.950413"
       y="126.9001"
       id="rect3883-7-1-9-1-7-3"
       style="color:#000000;display:inline;overflow:visible;visibility:visible;fill:#757575;fill-opacity:1;fill-rule:nonzero;stroke:#000000;stroke-width:0.26458332;stroke-linecap:butt;stroke-linejoin:miter;stroke-miterlimit:4;stroke-dasharray:none;stroke-dashoffset:0;stroke-opacity:1;marker:none;enable-background:accumulate" />
    <rect
       width="209.67651"
       height="43.866463"
       x="226.05521"
       y="126.9001"
       id="rect3883-7-1-9-1-7-3-8"
       style="color:#000000;display:inline;overflow:visible;visibility:visible;fill:#757575;fill-opacity:1;fill-rule:nonzero;stroke:#000000;stroke-width:0.26458332;stroke-linecap:butt;stroke-linejoin:miter;stroke-miterlimit:4;stroke-dasharray:none;stroke-dashoffset:0;stroke-opacity:1;marker:none;enable-background:accumulate" />
    <path
       style="fill:none;fill-rule:evenodd;stroke:#ff0000;stroke-width:2.64583325;stroke-linecap:butt;stroke-linejoin:miter;stroke-miterlimit:4;stroke-dasharray:none;stroke-opacity:1"
       d="M 253.03975,148.02282 V 272.39276"
       id="path5109-0-5-3-6-9-0-3-0-1"
       inkscape:connector-curvature="0" />
    <path
       style="fill:none;fill-rule:evenodd;stroke:#ff0000;stroke-width:2.64583325;stroke-linecap:butt;stroke-linejoin:miter;stroke-miterlimit:4;stroke-dasharray:none;stroke-opacity:1"
       d="m 271.08811,148.02282 v 68.28956"
       id="path5109-4-7-2-2-9-6-3-6"
       inkscape:connector-curvature="0" />
    <path
       style="fill:none;fill-rule:evenodd;stroke:#ff0000;stroke-width:2.64583325;stroke-linecap:butt;stroke-linejoin:miter;stroke-miterlimit:4;stroke-dasharray:none;stroke-opacity:1"
       d="m 269.7652,214.98945 h 61.13363"
       id="path5109-4-4-0-9-2-3-2-57"
       inkscape:connector-curvature="0" />
    <path
       style="fill:none;fill-rule:evenodd;stroke:#ff0000;stroke-width:2.64583302;stroke-linecap:butt;stroke-linejoin:miter;stroke-miterlimit:4;stroke-dasharray:none;stroke-opacity:1"
       d="m 251.71681,271.06982 h 79.18204"
       id="path5109-4-4-0-9-2-3-2-57-0"
       inkscape:connector-curvature="0" />
    <path
       style="fill:none;fill-rule:evenodd;stroke:#ff0000;stroke-width:1.58749986;stroke-linecap:butt;stroke-linejoin:miter;stroke-miterlimit:4;stroke-dasharray:none;stroke-opacity:1"
       d="m 294.44205,202.26559 h 37.24517"
       id="path5109-4-4-0-9-2-3-2-5-5"
       inkscape:connector-curvature="0" />
    <path
       style="fill:none;fill-rule:evenodd;stroke:#0000ff;stroke-width:1.58749998;stroke-linecap:butt;stroke-linejoin:miter;stroke-miterlimit:4;stroke-dasharray:none;stroke-opacity:1"
       d="M 330.89885,228.50707 V 216.31238"
       id="path5109-0-5-3-6-9-0-3-1"
       inkscape:connector-curvature="0" />
    <path
       style="fill:none;fill-rule:evenodd;stroke:#0000ff;stroke-width:1.58749986;stroke-linecap:butt;stroke-linejoin:miter;stroke-miterlimit:4;stroke-dasharray:none;stroke-opacity:1"
       d="m 294.44744,227.71332 h 37.24518"
       id="path5109-4-4-0-9-2-3-2-5-5-0"
       inkscape:connector-curvature="0" />
    <path
       style="fill:none;fill-rule:evenodd;stroke:#ffff00;stroke-width:2.64583325;stroke-linecap:butt;stroke-linejoin:miter;stroke-miterlimit:4;stroke-dasharray:none;stroke-opacity:1"
       d="m 390.70959,148.02282 v 68.28956"
       id="path5109-4-7-2-2-9-6-3-6-3"
       inkscape:connector-curvature="0" />
    <path
       style="fill:none;fill-rule:evenodd;stroke:#ffff00;stroke-width:2.64583325;stroke-linecap:butt;stroke-linejoin:miter;stroke-miterlimit:4;stroke-dasharray:none;stroke-opacity:1"
       d="M 392.0325,214.98946 H 330.89884"
       id="path5109-4-4-0-9-2-3-2-57-8"
       inkscape:connector-curvature="0" />
    <path
       style="fill:none;fill-rule:evenodd;stroke:#ffff00;stroke-width:2.64583325;stroke-linecap:butt;stroke-linejoin:miter;stroke-miterlimit:4;stroke-dasharray:none;stroke-opacity:1"
       d="M 408.75795,148.02282 V 272.39276"
       id="path5109-0-5-3-6-9-0-3-0-1-3"
       inkscape:connector-curvature="0" />
    <path
       style="fill:none;fill-rule:evenodd;stroke:#ffff00;stroke-width:2.64583349;stroke-linecap:butt;stroke-linejoin:miter;stroke-miterlimit:4;stroke-dasharray:none;stroke-opacity:1"
       d="M 410.08088,271.06985 H 330.89885"
       id="path5109-4-4-0-9-2-3-2-57-8-3"
       inkscape:connector-curvature="0" />
    <path
       style="fill:none;fill-rule:evenodd;stroke:#ff0000;stroke-width:1.58749998;stroke-linecap:butt;stroke-linejoin:miter;stroke-miterlimit:4;stroke-dasharray:none;stroke-opacity:1"
       d="m 330.89347,257.55223 v 12.19469"
       id="path5109-0-5-3-6-9-0-3-2"
       inkscape:connector-curvature="0" />
    <path
       style="fill:none;fill-rule:evenodd;stroke:#ff0000;stroke-width:1.58749986;stroke-linecap:butt;stroke-linejoin:miter;stroke-miterlimit:4;stroke-dasharray:none;stroke-opacity:1"
       d="m 294.44206,258.34598 h 37.24518"
       id="path5109-4-4-0-9-2-3-2-5-5-2"
       inkscape:connector-curvature="0" />
    <path
       style="fill:none;fill-rule:evenodd;stroke:#0000ff;stroke-width:1.58749998;stroke-linecap:butt;stroke-linejoin:miter;stroke-miterlimit:4;stroke-dasharray:none;stroke-opacity:1"
       d="M 330.89886,284.58746 V 272.39277"
       id="path5109-0-5-3-6-9-0-3-1-1"
       inkscape:connector-curvature="0" />
    <path
       style="fill:none;fill-rule:evenodd;stroke:#0000ff;stroke-width:1.58749986;stroke-linecap:butt;stroke-linejoin:miter;stroke-miterlimit:4;stroke-dasharray:none;stroke-opacity:1"
       d="m 294.44745,283.79371 h 37.24519"
       id="path5109-4-4-0-9-2-3-2-5-5-0-0"
       inkscape:connector-curvature="0" />
    <polygon
       transform="matrix(0,-0.26458333,0.26458333,0,387.53459,143.41986)"
       style="fill:#ffff00;fill-opacity:1;stroke:#ffff00;stroke-miterlimit:10;stroke-opacity:1"
       stroke-miterlimit="10"
       points="2,17 2,7 12,7 12,2 22,12 12,22 12,17 "
       id="polygon2" />
    <polygon
       transform="matrix(0,0.26496356,-0.2636491,0,256.20354,137.00623)"
       style="fill:#ff0000;stroke:#ff0000;stroke-width:1.00105119;stroke-miterlimit:10"
       stroke-miterlimit="10"
       points="2,7 12,7 12,2 22,12 12,22 12,17 2,17 "
       id="polygon2-3" />
    <polygon
       transform="matrix(0,0.26496357,-0.2636491,0,274.2519,137.00623)"
       style="fill:#ff0000;stroke:#ff0000;stroke-width:1.00105119;stroke-miterlimit:10"
       stroke-miterlimit="10"
       points="12,7 12,2 22,12 12,22 12,17 2,17 2,7 "
       id="polygon2-3-9" />
    <polygon
       transform="matrix(0,-0.26458333,0.26458333,0,405.58295,143.41986)"
       style="fill:#ffff00;fill-opacity:1;stroke:#ffff00;stroke-miterlimit:10;stroke-opacity:1"
       stroke-miterlimit="10"
       points="12,17 2,17 2,7 12,7 12,2 22,12 12,22 "
       id="polygon2-2" />
    <path
       style="fill:none;fill-rule:evenodd;stroke:#ff0000;stroke-width:1.58749986;stroke-linecap:butt;stroke-linejoin:miter;stroke-miterlimit:4;stroke-dasharray:none;stroke-opacity:1"
       d="M 55.226555,271.06983 H 159.46387"
       id="path5109-4-4-0-9-2-3-2-5-5-6"
       inkscape:connector-curvature="0" />
    <g
       transform="matrix(0,0.26458333,-0.26458333,0,-51.139313,194.05857)"
       id="Ebene_x0020_1-4"
       style="clip-rule:evenodd;fill:#ffffff;fill-opacity:1;fill-rule:evenodd;stroke:#000000;stroke-opacity:1;image-rendering:optimizeQuality;shape-rendering:geometricPrecision;text-rendering:geometricPrecision">
      <metadata
         id="CorelCorpID_0Corel-Layer-0" />
      <circle
         class="fil0 str0"
         cx="30.537399"
         cy="30"
         r="19.925301"
         id="circle7-2"
         style="fill:#ffffff;fill-opacity:1;stroke:#000000;stroke-opacity:1" />
      <line
         class="fil0 str0"
         x1="35.695599"
         y1="10.7491"
         x2="44.6259"
         y2="44.0886"
         id="line9-0"
         style="fill:#ffffff;fill-opacity:1;stroke:#000000;stroke-opacity:1" />
      <line
         class="fil0 str0"
         x1="25.379101"
         y1="10.7491"
         x2="16.448799"
         y2="44.0886"
         id="line11-0"
         style="fill:#ffffff;fill-opacity:1;stroke:#000000;stroke-opacity:1" />
    </g>
  </g>
</svg>
