<?xml version="1.0" encoding="UTF-8" standalone="no"?>
<!-- Created with Inkscape (http://www.inkscape.org/) -->

<svg
   xmlns:atv="http://webmi.atvise.com/2007/svgext"
   xmlns:osb="http://www.openswatchbook.org/uri/2009/osb"
   xmlns:dc="http://purl.org/dc/elements/1.1/"
   xmlns:cc="http://creativecommons.org/ns#"
   xmlns:rdf="http://www.w3.org/1999/02/22-rdf-syntax-ns#"
   xmlns:svg="http://www.w3.org/2000/svg"
   xmlns="http://www.w3.org/2000/svg"
   xmlns:xlink="http://www.w3.org/1999/xlink"
   xmlns:sodipodi="http://sodipodi.sourceforge.net/DTD/sodipodi-0.dtd"
   xmlns:inkscape="http://www.inkscape.org/namespaces/inkscape"
   width="100%"
   height="100%"
   viewBox="-9.2603 0 494.7646 187.85417"
   version="1.1"
   id="svg8"
   inkscape:version="0.92.1 r15371"
   sodipodi:docname="1Hotel_2KaelteKlima_3ULKEG1OG_4K04K16K17ULKBackofficeEDVEGEDV1OG.svg">
  <defs
     id="defs2">
    <linearGradient
       id="linearGradient7016"
       osb:paint="solid">
      <stop
         style="stop-color:#ed8b0d;stop-opacity:1;"
         offset="0"
         id="stop7014" />
    </linearGradient>
    <linearGradient
       x2="95.790497"
       gradientUnits="userSpaceOnUse"
       y2="184.22392"
       x1="-0.31637955"
       y1="184.22392"
       id="linearGradient6902"
       spreadMethod="reflect"
       gradientTransform="matrix(0.79019013,0,0,1.2655182,891.24136,407.83495)">
      <stop
         id="stop6898"
         stop-color="#000000"
         offset="0" />
      <stop
         id="stop6900"
         stop-color="#8c8c8c"
         offset="1"
         style="stop-color:#15202b;stop-opacity:1" />
    </linearGradient>
    <linearGradient
       id="linearGradient6533"
       osb:paint="solid">
      <stop
         style="stop-color:#72c072;stop-opacity:1;"
         offset="0"
         id="stop6531" />
    </linearGradient>
    <linearGradient
       gradientTransform="matrix(0.79019013,0,0,1.2655182,891.24136,407.83495)"
       spreadMethod="reflect"
       id="linearGradient6495"
       y1="184.22392"
       x1="-0.31637955"
       y2="184.22392"
       gradientUnits="userSpaceOnUse"
       x2="95.790497">
      <stop
         offset="0"
         stop-color="#000000"
         id="stop6491" />
      <stop
         offset="1"
         stop-color="#8c8c8c"
         id="stop6493" />
    </linearGradient>
    <linearGradient
       gradientTransform="matrix(0.79019013,0,0,1.2655182,891.24136,407.83495)"
       spreadMethod="reflect"
       id="linearGradient6479"
       y1="184.22392"
       x1="-0.31637955"
       y2="184.22392"
       gradientUnits="userSpaceOnUse"
       x2="95.790497">
      <stop
         offset="0"
         stop-color="#000000"
         id="stop6475"
         style="stop-color:#999999;stop-opacity:1" />
      <stop
         offset="1"
         stop-color="#8c8c8c"
         id="stop6477" />
    </linearGradient>
    <inkscape:path-effect
       effect="spiro"
       id="path-effect6378"
       is_visible="true" />
    <inkscape:path-effect
       effect="spiro"
       id="path-effect6374"
       is_visible="true" />
    <inkscape:path-effect
       effect="spiro"
       id="path-effect6370"
       is_visible="true" />
    <inkscape:perspective
       sodipodi:type="inkscape:persp3d"
       inkscape:vp_x="0 : 93.927085 : 1"
       inkscape:vp_y="0 : 1000 : 0"
       inkscape:vp_z="476.24999 : 93.927085 : 1"
       inkscape:persp3d-origin="238.125 : 62.618057 : 1"
       id="perspective6348" />
    <inkscape:path-effect
       effect="spiro"
       id="path-effect6346"
       is_visible="true" />
    <linearGradient
       gradientTransform="matrix(0.82559229,0,0,1.2112516,891.24136,407.83495)"
       spreadMethod="reflect"
       id="linearGradient6257"
       y1="184.23386"
       x1="0"
       y2="184.23386"
       gradientUnits="userSpaceOnUse"
       x2="91.678764">
      <stop
         offset="0"
         stop-color="#999999"
         id="stop6253" />
      <stop
         offset="1"
         stop-color="#f2f2f2"
         id="stop6255"
         style="stop-color:#ef1b1b;stop-opacity:1" />
    </linearGradient>
    <linearGradient
       gradientTransform="matrix(0.82559229,0,0,1.2112516,891.24136,407.83495)"
       spreadMethod="reflect"
       id="linearGradient6249"
       y1="184.23386"
       x1="0"
       y2="184.23386"
       gradientUnits="userSpaceOnUse"
       x2="91.678764">
      <stop
         offset="0"
         stop-color="#999999"
         id="stop6245"
         style="stop-color:#d62424;stop-opacity:1" />
      <stop
         offset="1"
         stop-color="#f2f2f2"
         id="stop6247" />
    </linearGradient>
    <linearGradient
       x2="95.790497"
       gradientUnits="userSpaceOnUse"
       y2="184.22392"
       x1="-0.31637955"
       y1="184.22392"
       id="id_36_fill_gradient-12"
       spreadMethod="reflect"
       gradientTransform="matrix(0.79019013,0,0,1.2655182,891.24136,407.83495)">
      <stop
         id="stop5900"
         stop-color="#000000"
         offset="0" />
      <stop
         id="stop5902"
         stop-color="#8c8c8c"
         offset="1" />
    </linearGradient>
    <linearGradient
       x2="91.678764"
       gradientUnits="userSpaceOnUse"
       y2="184.23386"
       x1="0"
       y1="184.23386"
       id="id_17_fill_gradient-7"
       spreadMethod="reflect"
       gradientTransform="matrix(0.82559229,0,0,1.2112516,891.24136,407.83495)">
      <stop
         id="stop5895"
         stop-color="#999999"
         offset="0" />
      <stop
         id="stop5897"
         stop-color="#f2f2f2"
         offset="1" />
    </linearGradient>
    <linearGradient
       inkscape:collect="always"
       xlink:href="#id_17_fill_gradient-7"
       id="linearGradient6447"
       gradientUnits="userSpaceOnUse"
       gradientTransform="matrix(0.21843796,0,0,0.32047698,-51.939784,31.771168)"
       x1="-1017.7682"
       y1="178.46416"
       x2="-919.02661"
       y2="178.46416"
       spreadMethod="reflect" />
    <linearGradient
       inkscape:collect="always"
       xlink:href="#linearGradient6495"
       id="linearGradient6489"
       x1="-233.41592"
       y1="236.57091"
       x2="-191.00809"
       y2="236.57091"
       gradientUnits="userSpaceOnUse"
       spreadMethod="pad" />
    <inkscape:path-effect
       effect="spiro"
       id="path-effect6370-6"
       is_visible="true" />
    <inkscape:path-effect
       effect="spiro"
       id="path-effect6374-3"
       is_visible="true" />
    <inkscape:path-effect
       effect="spiro"
       id="path-effect6378-0"
       is_visible="true" />
    <inkscape:path-effect
       effect="spiro"
       id="path-effect6370-6-9"
       is_visible="true" />
    <inkscape:path-effect
       effect="spiro"
       id="path-effect6374-3-3"
       is_visible="true" />
    <inkscape:path-effect
       effect="spiro"
       id="path-effect6378-0-5"
       is_visible="true" />
    <linearGradient
       inkscape:collect="always"
       xlink:href="#linearGradient6495"
       id="linearGradient6896"
       x1="-233.41592"
       y1="236.57091"
       x2="-191.00809"
       y2="236.57091"
       gradientUnits="userSpaceOnUse"
       spreadMethod="pad" />
    <linearGradient
       inkscape:collect="always"
       xlink:href="#id_4_fill_gradient"
       id="linearGradient78027"
       gradientUnits="userSpaceOnUse"
       x1="127.21804"
       y1="131.68481"
       x2="104.64709"
       y2="78.335365"
       gradientTransform="matrix(0.26458333,0,0,0.26458333,356.51627,166.194)" />
    <linearGradient
       x2="0.69862998"
       gradientUnits="objectBoundingBox"
       y2="0.52054799"
       x1="0.84931499"
       y1="0.87671202"
       id="id_4_fill_gradient">
      <stop
         id="stop15847"
         stop-color="#bdbdbd"
         offset="0.5" />
      <stop
         id="stop15849"
         stop-color="#cccccc"
         offset="1" />
    </linearGradient>
    <linearGradient
       inkscape:collect="always"
       xlink:href="#id_4_fill_gradient"
       id="linearGradient78027-0"
       gradientUnits="userSpaceOnUse"
       x1="127.21804"
       y1="131.68481"
       x2="104.64709"
       y2="78.335365"
       gradientTransform="matrix(0.26458333,0,0,0.26458333,356.51627,166.194)" />
    <linearGradient
       inkscape:collect="always"
       xlink:href="#id_4_fill_gradient"
       id="linearGradient78027-1"
       gradientUnits="userSpaceOnUse"
       x1="127.21804"
       y1="131.68481"
       x2="104.64709"
       y2="78.335365"
       gradientTransform="matrix(0.26458333,0,0,0.26458333,356.51627,166.194)" />
  </defs>
  <sodipodi:namedview
     id="base"
     pagecolor="#ffffff"
     bordercolor="#666666"
     borderopacity="1.0"
     inkscape:pageopacity="0.0"
     inkscape:pageshadow="2"
     inkscape:zoom="1.979899"
     inkscape:cx="401.8028"
     inkscape:cy="93.76558"
     inkscape:document-units="mm"
     inkscape:current-layer="layer1"
     showgrid="false"
     units="px"
     inkscape:snap-grids="true"
     inkscape:snap-center="true"
     inkscape:snap-object-midpoints="true"
     inkscape:snap-midpoints="true"
     inkscape:snap-intersection-paths="true"
     inkscape:snap-bbox="true"
     inkscape:bbox-paths="true"
     inkscape:bbox-nodes="true"
     inkscape:snap-bbox-edge-midpoints="true"
     inkscape:snap-bbox-midpoints="true"
     inkscape:measure-start="1338.85,595.23"
     inkscape:measure-end="1800,710"
     inkscape:window-width="1920"
     inkscape:window-height="1018"
     inkscape:window-x="-8"
     inkscape:window-y="-8"
     inkscape:window-maximized="1"
     showguides="true"
     inkscape:snap-page="true">
    <inkscape:grid
       type="xygrid"
       id="grid6774" />
  </sodipodi:namedview>
  <metadata
     id="metadata5">
    <rdf:RDF>
      <cc:Work
         rdf:about="">
        <dc:format>image/svg+xml</dc:format>
        <dc:type
           rdf:resource="http://purl.org/dc/dcmitype/StillImage" />
        <dc:title />
      </cc:Work>
    </rdf:RDF>
  </metadata>
  <g
     inkscape:label="Ebene 1"
     inkscape:groupmode="layer"
     id="layer1"
     transform="translate(0,-109.14582)">
    <path
       style="fill:none;fill-rule:evenodd;stroke:#ff00ff;stroke-width:1.58700001;stroke-linecap:butt;stroke-linejoin:miter;stroke-miterlimit:4;stroke-dasharray:none;stroke-opacity:1"
       d="M -9.2603,254.75923 H 127.48449"
       id="path5109-0-5-3-6-9-0-5-45-0"
       inkscape:connector-curvature="0" />
    <g
       id="g64380-4"
       transform="matrix(0.26458333,0,0,0.26458333,-246.97037,104.95684)">
      <g
         id="g64347-9">
        <rect
           style="color:#000000;display:inline;overflow:visible;visibility:visible;fill:#000100;fill-opacity:1;fill-rule:nonzero;stroke:#000000;stroke-width:1;stroke-linecap:butt;stroke-linejoin:miter;stroke-miterlimit:4;stroke-dasharray:none;stroke-dashoffset:0;stroke-opacity:1;marker:none;enable-background:accumulate"
           id="rect64296-2-7"
           width="5.6421356"
           height="35.056572"
           x="128.54912"
           y="656.01727" />
        <rect
           style="color:#000000;display:inline;overflow:visible;visibility:visible;fill:#000100;fill-opacity:1;fill-rule:nonzero;stroke:#000000;stroke-width:1;stroke-linecap:butt;stroke-linejoin:miter;stroke-miterlimit:4;stroke-dasharray:none;stroke-dashoffset:0;stroke-opacity:1;marker:none;enable-background:accumulate"
           id="rect64296-9-3"
           width="5.6421356"
           height="35.056572"
           x="198.85432"
           y="656.01727" />
        <rect
           style="color:#000000;display:inline;overflow:visible;visibility:visible;fill:#000100;fill-opacity:1;fill-rule:nonzero;stroke:#000000;stroke-width:1;stroke-linecap:butt;stroke-linejoin:miter;stroke-miterlimit:4;stroke-dasharray:none;stroke-dashoffset:0;stroke-opacity:1;marker:none;enable-background:accumulate"
           id="rect64296-8"
           width="5.6421356"
           height="35.056572"
           x="58.243927"
           y="656.01727" />
      </g>
      <path
         inkscape:connector-curvature="0"
         id="path64373-1"
         d="M 40.919306,691.50002 H 221.82108"
         style="fill:none;fill-rule:evenodd;stroke:#000000;stroke-width:2;stroke-linecap:butt;stroke-linejoin:miter;stroke-miterlimit:4;stroke-dasharray:none;stroke-opacity:1" />
    </g>
    <path
       style="fill:#000000;fill-opacity:1;stroke:url(#linearGradient6489);stroke-width:0.13229167;stroke-linejoin:round;stroke-opacity:1"
       d="m -233.41593,194.81218 h 42.40785 v 83.51746 h -42.40785 z"
       atv:refpy="119.731"
       atv:refpx="74.667"
       id="path5933-0-7-5"
       inkscape:connector-curvature="0" />
    <path
       style="fill:#999999;fill-opacity:1;stroke-width:0.13229167;stroke-linejoin:round;stroke:url(#linearGradient6896)"
       d="m -233.41593,198.36476 h 42.40785 v 76.41231 h -42.40785 z"
       atv:refpy="119.611"
       atv:refpx="74.667"
       id="path5935-2-4-25"
       inkscape:connector-curvature="0" />
    <g
       id="g6386"
       transform="matrix(0.27047495,0,0,0.27047495,-124.70784,211.87579)">
      <path
         inkscape:original-d="m -323.51943,52.962307 c -8.33307,16.666403 -16.66642,33.333072 -25,50.000003"
         inkscape:path-effect="#path-effect6370"
         inkscape:connector-curvature="0"
         id="path6368"
         d="m -323.51943,52.962307 -25,50.000003"
         style="fill:none;stroke:#000000;stroke-width:0.26458332px;stroke-linecap:butt;stroke-linejoin:miter;stroke-opacity:1" />
      <path
         inkscape:original-d="m -348.51943,102.96231 c 16.66693,-2.6e-4 33.33359,-2.6e-4 50.00001,0"
         inkscape:path-effect="#path-effect6374"
         inkscape:connector-curvature="0"
         id="path6372"
         d="m -348.51943,102.96231 h 50.00001"
         style="fill:none;stroke:#000000;stroke-width:0.26458332px;stroke-linecap:butt;stroke-linejoin:miter;stroke-opacity:1" />
      <path
         inkscape:original-d="m -298.51942,102.96231 c -8.33308,-16.666932 -16.6664,-33.3336 -25.00001,-50.000003"
         inkscape:path-effect="#path-effect6378"
         inkscape:connector-curvature="0"
         id="path6376"
         d="M -298.51942,102.96231 -323.51943,52.962307"
         style="fill:none;stroke:#000000;stroke-width:0.26458332px;stroke-linecap:butt;stroke-linejoin:miter;stroke-opacity:1" />
      <path
         inkscape:connector-curvature="0"
         id="path6380"
         d="m -1269.6006,-117.08067 c 25.6258,-51.25262 46.7066,-93.18658 46.8462,-93.18658 0.1396,0 21.2205,41.93396 46.8463,93.18658 l 46.5925,93.186568 h -93.4388 -93.4387 z"
         style="opacity:1;fill:#ff0000;fill-opacity:1;stroke:none;stroke-width:0.25253814;stroke-miterlimit:4;stroke-dasharray:none;stroke-opacity:1"
         transform="matrix(0.26458333,0,0,0.26458333,0,109.14582)" />
    </g>
    <g
       id="g6579">
      <g
         transform="matrix(0.26458333,0,0,0.26458333,-287.81342,-88.877399)"
         id="g64380-2">
        <g
           id="g64347-4">
          <rect
             y="656.01727"
             x="128.54912"
             height="35.056572"
             width="5.6421356"
             id="rect64296-2-5"
             style="color:#000000;display:inline;overflow:visible;visibility:visible;fill:#000100;fill-opacity:1;fill-rule:nonzero;stroke:#000000;stroke-width:1;stroke-linecap:butt;stroke-linejoin:miter;stroke-miterlimit:4;stroke-dasharray:none;stroke-dashoffset:0;stroke-opacity:1;marker:none;enable-background:accumulate" />
          <rect
             y="656.01727"
             x="198.85432"
             height="35.056572"
             width="5.6421356"
             id="rect64296-9-0"
             style="color:#000000;display:inline;overflow:visible;visibility:visible;fill:#000100;fill-opacity:1;fill-rule:nonzero;stroke:#000000;stroke-width:1;stroke-linecap:butt;stroke-linejoin:miter;stroke-miterlimit:4;stroke-dasharray:none;stroke-dashoffset:0;stroke-opacity:1;marker:none;enable-background:accumulate" />
          <rect
             y="656.01727"
             x="58.243927"
             height="35.056572"
             width="5.6421356"
             id="rect64296-3"
             style="color:#000000;display:inline;overflow:visible;visibility:visible;fill:#000100;fill-opacity:1;fill-rule:nonzero;stroke:#000000;stroke-width:1;stroke-linecap:butt;stroke-linejoin:miter;stroke-miterlimit:4;stroke-dasharray:none;stroke-dashoffset:0;stroke-opacity:1;marker:none;enable-background:accumulate" />
        </g>
        <path
           style="fill:none;fill-rule:evenodd;stroke:#000000;stroke-width:2;stroke-linecap:butt;stroke-linejoin:miter;stroke-miterlimit:4;stroke-dasharray:none;stroke-opacity:1"
           d="M 40.919306,691.50002 H 221.82108"
           id="path64373-86"
           inkscape:connector-curvature="0" />
      </g>
      <path
         inkscape:connector-curvature="0"
         id="path5933-0-7-0"
         atv:refpx="74.667"
         atv:refpy="119.731"
         d="m -274.25898,8.3505086 h 42.40785 V 91.867967 h -42.40785 z"
         style="fill:#000000;fill-opacity:1;stroke:#000000;stroke-width:0.13229167;stroke-linejoin:round" />
      <path
         inkscape:connector-curvature="0"
         id="path5935-2-4-1"
         atv:refpx="74.667"
         atv:refpy="119.611"
         d="m -274.19283,11.903079 h 42.40785 v 76.412317 h -42.40785 z"
         style="fill:url(#linearGradient6447);fill-opacity:1;stroke-width:0.13229167;stroke-linejoin:round" />
      <path
         style="opacity:1;fill:#ff0000;fill-opacity:1;stroke:#999999;stroke-width:0.01807243;stroke-miterlimit:4;stroke-dasharray:none;stroke-opacity:1"
         d="m -256.40753,50.109243 c 1.83387,-3.6678 3.34247,-6.66873 3.35246,-6.66873 0.01,0 1.51861,3.00093 3.35247,6.66873 l 3.33431,6.66872 h -6.68678 -6.68676 z"
         id="path6380-2"
         inkscape:connector-curvature="0" />
    </g>
    <path
       style="fill:none;fill-rule:evenodd;stroke:#b400b4;stroke-width:1.58700025;stroke-linecap:butt;stroke-linejoin:miter;stroke-miterlimit:4;stroke-dasharray:none;stroke-opacity:1"
       d="m 128.83659,199.86628 v 74.50669"
       id="path5109-4-7-2-2-9-9"
       inkscape:connector-curvature="0" />
    <path
       style="fill:none;fill-rule:evenodd;stroke:#ff00ff;stroke-width:1.58700013;stroke-linecap:butt;stroke-linejoin:miter;stroke-miterlimit:4;stroke-dasharray:none;stroke-opacity:1"
       d="m 146.88495,199.86627 v 55.66486"
       id="path5109-0-5-3-6-9-0-5"
       inkscape:connector-curvature="0" />
    <path
       style="fill:none;fill-rule:evenodd;stroke:#b400b4;stroke-width:1.58700025;stroke-linecap:butt;stroke-linejoin:miter;stroke-miterlimit:4;stroke-dasharray:none;stroke-opacity:1"
       d="m 340.61268,199.86628 v 74.50669"
       id="path5109-4-7-2-2-9-9-97"
       inkscape:connector-curvature="0" />
    <path
       style="fill:none;fill-rule:evenodd;stroke:#ff00ff;stroke-width:1.58700013;stroke-linecap:butt;stroke-linejoin:miter;stroke-miterlimit:4;stroke-dasharray:none;stroke-opacity:1"
       d="m 358.66104,199.86627 v 55.66486"
       id="path5109-0-5-3-6-9-0-5-45"
       inkscape:connector-curvature="0" />
    <path
       style="fill:none;fill-rule:evenodd;stroke:#b400b4;stroke-width:1.58700025;stroke-linecap:butt;stroke-linejoin:miter;stroke-miterlimit:4;stroke-dasharray:none;stroke-opacity:1"
       d="m 234.72465,199.86628 v 74.50669"
       id="path5109-4-7-2-2-9-9-3"
       inkscape:connector-curvature="0" />
    <path
       style="fill:none;fill-rule:evenodd;stroke:#ff00ff;stroke-width:1.58700013;stroke-linecap:butt;stroke-linejoin:miter;stroke-miterlimit:4;stroke-dasharray:none;stroke-opacity:1"
       d="m 252.773,199.86627 v 55.66486"
       id="path5109-0-5-3-6-9-0-5-1"
       inkscape:connector-curvature="0" />
    <g
       id="g4716"
       transform="matrix(1.5263042,0,0,1.5263042,-457.50676,-131.35288)"
       style="stroke-width:0.65517735">
      <path
         style="fill:url(#linearGradient78027);stroke:#000000;stroke-width:0.0866745"
         inkscape:connector-curvature="0"
         id="id_4-40"
         atv:refpx="74.895"
         atv:refpy="75.259"
         d="m 370.32174,177.46458 h 39.49938 v 39.49938 h -39.49938 z" />
      <circle
         style="fill:#7f7f7f;stroke:#000000;stroke-width:0.0866745"
         r="18.162619"
         cx="389.99747"
         cy="197.14296"
         id="id_35-6"
         atv:refpx="74.614"
         atv:refpy="74.987" />
      <circle
         style="fill:#191919;stroke:#000000;stroke-width:0.0866745"
         r="17.273283"
         cx="389.99747"
         cy="197.09349"
         id="id_34-3"
         atv:refpx="74.614"
         atv:refpy="74.8" />
      <g
         id="id_42-3"
         atv:refpx="102.806"
         atv:refpy="97.68899999999999"
         transform="matrix(-0.12713229,0.23203958,-0.23203958,-0.12713229,452.31328,179.10237)"
         style="stroke-width:0.65517735">
        <path
           style="fill:#b2b2b2;stroke:#000000;stroke-width:0.32758868"
           inkscape:connector-curvature="0"
           id="id_40-4"
           atv:refpx="175.306"
           atv:refpy="138.061"
           d="m 164.843,112.205 v 51.705 h 20.921 v -51.705 z" />
        <path
           style="fill:#cccccc;stroke:#000000;stroke-width:0.32758868"
           inkscape:connector-curvature="0"
           id="id_41-2"
           atv:refpx="179.334"
           atv:refpy="138.249"
           d="m 164.846,164.114 c 0,0 20.959,0 21.055,0 0.095,0 8.193,-13.052 7.907,-25.914 -0.285,-12.862 -7.717,-25.723 -7.812,-25.723 -0.095,0 -20.864,-0.096 -20.864,-0.096 0,0 8.289,12.005 7.622,25.343 -0.667,13.338 -7.717,26.485 -7.908,26.39" />
      </g>
      <g
         id="id_39-6"
         atv:refpx="109.178"
         atv:refpy="60.718"
         transform="matrix(0.13469937,0.22772687,-0.22772687,0.13469937,387.11138,146.99199)"
         style="stroke-width:0.65517735">
        <path
           style="fill:#b2b2b2;stroke:#000000;stroke-width:0.32758868"
           inkscape:connector-curvature="0"
           id="id_37-3"
           atv:refpx="169.991"
           atv:refpy="49.99"
           d="m 159.528,24.134 v 51.705 h 20.921 V 24.134 Z" />
        <path
           style="fill:#cccccc;stroke:#000000;stroke-width:0.32758868"
           inkscape:connector-curvature="0"
           id="id_38-5"
           atv:refpx="174.019"
           atv:refpy="50.178"
           d="m 159.531,76.043 c 0,0 20.959,0 21.055,0 0.095,0 8.193,-13.052 7.907,-25.914 -0.285,-12.862 -7.717,-25.723 -7.812,-25.723 -0.095,0 -20.864,-0.096 -20.864,-0.096 0,0 8.289,12.005 7.622,25.343 -0.667,13.338 -7.717,26.485 -7.908,26.39" />
      </g>
      <path
         style="fill:#b2b2b2;stroke:#000000;stroke-width:0.0866745"
         inkscape:connector-curvature="0"
         id="id_16-04"
         atv:refpx="74.821"
         atv:refpy="38.468"
         d="m 387.28338,180.63931 v 13.68055 h 5.53561 v -13.68055 z" />
      <path
         style="fill:#cccccc;stroke:#000000;stroke-width:0.0866745"
         inkscape:connector-curvature="0"
         id="id_36-25"
         atv:refpx="78.848"
         atv:refpy="38.657"
         d="m 387.28418,194.37357 c 0,0 5.54566,0 5.5708,0 0.0251,0 2.16773,-3.45334 2.09206,-6.85615 -0.0754,-3.40307 -2.04153,-6.80588 -2.06693,-6.80588 -0.0251,0 -5.52026,-0.0254 -5.52026,-0.0254 0,0 2.19313,3.17606 2.01665,6.70507 -0.17648,3.52902 -2.04179,7.00749 -2.09232,6.98236" />
      <g
         id="id_53-28"
         atv:refpx="45.646"
         atv:refpy="53.496"
         transform="matrix(0.13559896,-0.22719771,0.22719771,0.13559896,385.80301,191.64664)"
         style="stroke-width:0.65517735">
        <path
           style="fill:#b2b2b2;stroke:#000000;stroke-width:0.32758868"
           inkscape:connector-curvature="0"
           id="id_51-83"
           atv:refpx="-10.128"
           atv:refpy="-11.728"
           d="M -20.591,-37.584 V 14.119 H 0.329 V -37.584 Z" />
        <path
           style="fill:#cccccc;stroke:#000000;stroke-width:0.32758868"
           inkscape:connector-curvature="0"
           id="id_52-89"
           atv:refpx="-6.1"
           atv:refpy="-11.54"
           d="m -20.588,14.323 c 0,0 20.958,0 21.054,0 0.095,0 8.192,-13.052 7.906,-25.911 -0.284,-12.863 -7.717,-25.724 -7.811,-25.724 -0.095,0 -20.863,-0.096 -20.863,-0.096 0,0 8.289,12.005 7.622,25.344 -0.667,13.335 -7.717,26.482 -7.908,26.387" />
      </g>
      <g
         id="id_50-8"
         atv:refpx="40.741"
         atv:refpy="87.538"
         transform="matrix(-0.13313833,-0.22865291,0.22865291,-0.13313833,360.91154,210.54342)"
         style="stroke-width:0.65517735">
        <path
           style="fill:#b2b2b2;stroke:#000000;stroke-width:0.32758868"
           inkscape:connector-curvature="0"
           id="id_48-53"
           atv:refpx="-9.372"
           atv:refpy="84.797"
           d="m -19.835,58.941 v 51.705 H 1.085 V 58.941 Z" />
        <path
           style="fill:#cccccc;stroke:#000000;stroke-width:0.32758868"
           inkscape:connector-curvature="0"
           id="id_49-22"
           atv:refpx="-5.344"
           atv:refpy="84.985"
           d="m -19.832,110.85 c 0,0 20.958,0 21.054,0 0.095,0 8.193,-13.052 7.907,-25.914 C 8.844,72.074 1.412,59.213 1.317,59.213 c -0.095,0 -20.863,-0.096 -20.863,-0.096 0,0 8.289,12.005 7.622,25.343 -0.667,13.338 -7.717,26.485 -7.908,26.39" />
      </g>
      <g
         id="id_47-13"
         atv:refpx="69.024"
         atv:refpy="110.569"
         transform="matrix(-0.26458333,0,0,0.26458333,383.3644,187.71057)"
         style="stroke-width:0.65517735">
        <path
           style="fill:#b2b2b2;stroke:#000000;stroke-width:0.32758868"
           inkscape:connector-curvature="0"
           id="id_45-20"
           atv:refpx="-23.502"
           atv:refpy="71.13200000000001"
           d="m -33.965,45.276 v 51.705 h 20.921 V 45.276 Z" />
        <path
           style="fill:#cccccc;stroke:#000000;stroke-width:0.32758868"
           inkscape:connector-curvature="0"
           id="id_46-6"
           atv:refpx="-19.474"
           atv:refpy="71.31999999999999"
           d="m -33.962,97.185 c 0,0 20.959,0 21.055,0 0.095,0 8.193,-13.052 7.907,-25.914 -0.285,-12.862 -7.717,-25.723 -7.812,-25.723 -0.095,0 -20.864,-0.096 -20.864,-0.096 0,0 8.289,12.005 7.622,25.343 -0.667,13.338 -7.717,26.485 -7.908,26.39" />
      </g>
      <circle
         style="fill:#666666;stroke:#000000;stroke-width:0.0866745"
         r="4.8233542"
         cx="390.05145"
         cy="197.09825"
         id="id_25-51"
         atv:refpx="74.819"
         atv:refpy="74.819" />
      <circle
         style="fill:#e5e5e5;stroke-width:0.0866745"
         r="4.1116252"
         cx="390.05145"
         cy="197.09825"
         id="id_26-41"
         atv:refpx="74.819"
         atv:refpy="74.819" />
      <circle
         style="fill:#7f7f7f;stroke-width:0.0866745"
         r="1.3438188"
         cx="390.05145"
         cy="197.09825"
         id="id_27-95"
         atv:refpx="74.819"
         atv:refpy="74.819" />
      <path
         style="fill:#000000;stroke-width:0.0866745"
         inkscape:connector-curvature="0"
         id="id_28-9"
         atv:refpx="14.148"
         atv:refpy="147.075"
         d="m 372.77204,215.84001 h 2.45216 v 0.75115 h -2.45216 z" />
      <path
         style="fill:#000000;stroke-width:0.0866745"
         inkscape:connector-curvature="0"
         id="id_29-6"
         atv:refpx="26.551"
         atv:refpy="147.075"
         d="m 376.0542,215.84001 h 2.45163 v 0.75115 h -2.45163 z" />
      <path
         style="fill:#000000;stroke-width:0.0866745"
         inkscape:connector-curvature="0"
         id="id_30-1"
         atv:refpx="48.37"
         atv:refpy="147.075"
         d="m 381.82741,215.84001 h 2.4511 v 0.75115 h -2.4511 z" />
      <path
         style="fill:#000000;stroke-width:0.0866745"
         inkscape:connector-curvature="0"
         id="id_31-62"
         atv:refpx="135.494"
         atv:refpy="147.075"
         d="m 407.33007,216.59116 h -2.45137 v -0.75115 h 2.45137 z" />
      <path
         style="fill:#000000;stroke-width:0.0866745"
         inkscape:connector-curvature="0"
         id="id_32-23"
         atv:refpx="123.09"
         atv:refpy="147.075"
         d="m 404.04818,216.59116 h -2.45137 v -0.75115 h 2.45137 z" />
      <path
         style="fill:#000000;stroke-width:0.0866745"
         inkscape:connector-curvature="0"
         id="id_33-0"
         atv:refpx="101.272"
         atv:refpy="147.075"
         d="m 398.2755,216.59116 h -2.45137 v -0.75115 h 2.45137 z" />
    </g>
    <g
       id="g4716-7"
       transform="matrix(1.5263042,0,0,1.5263042,-351.61872,-131.35288)"
       style="stroke-width:0.65517735">
      <path
         style="fill:url(#linearGradient78027-0);stroke:#000000;stroke-width:0.0866745"
         inkscape:connector-curvature="0"
         id="id_4-40-6"
         atv:refpx="74.895"
         atv:refpy="75.259"
         d="m 370.32174,177.46458 h 39.49938 v 39.49938 h -39.49938 z" />
      <circle
         style="fill:#7f7f7f;stroke:#000000;stroke-width:0.0866745"
         r="18.162619"
         cx="389.99747"
         cy="197.14296"
         id="id_35-6-9"
         atv:refpx="74.614"
         atv:refpy="74.987" />
      <circle
         style="fill:#191919;stroke:#000000;stroke-width:0.0866745"
         r="17.273283"
         cx="389.99747"
         cy="197.09349"
         id="id_34-3-3"
         atv:refpx="74.614"
         atv:refpy="74.8" />
      <g
         id="id_42-3-2"
         atv:refpx="102.806"
         atv:refpy="97.68899999999999"
         transform="matrix(-0.12713229,0.23203958,-0.23203958,-0.12713229,452.31328,179.10237)"
         style="stroke-width:0.65517735">
        <path
           style="fill:#b2b2b2;stroke:#000000;stroke-width:0.32758868"
           inkscape:connector-curvature="0"
           id="id_40-4-4"
           atv:refpx="175.306"
           atv:refpy="138.061"
           d="m 164.843,112.205 v 51.705 h 20.921 v -51.705 z" />
        <path
           style="fill:#cccccc;stroke:#000000;stroke-width:0.32758868"
           inkscape:connector-curvature="0"
           id="id_41-2-8"
           atv:refpx="179.334"
           atv:refpy="138.249"
           d="m 164.846,164.114 c 0,0 20.959,0 21.055,0 0.095,0 8.193,-13.052 7.907,-25.914 -0.285,-12.862 -7.717,-25.723 -7.812,-25.723 -0.095,0 -20.864,-0.096 -20.864,-0.096 0,0 8.289,12.005 7.622,25.343 -0.667,13.338 -7.717,26.485 -7.908,26.39" />
      </g>
      <g
         id="id_39-6-2"
         atv:refpx="109.178"
         atv:refpy="60.718"
         transform="matrix(0.13469937,0.22772687,-0.22772687,0.13469937,387.11138,146.99199)"
         style="stroke-width:0.65517735">
        <path
           style="fill:#b2b2b2;stroke:#000000;stroke-width:0.32758868"
           inkscape:connector-curvature="0"
           id="id_37-3-8"
           atv:refpx="169.991"
           atv:refpy="49.99"
           d="m 159.528,24.134 v 51.705 h 20.921 V 24.134 Z" />
        <path
           style="fill:#cccccc;stroke:#000000;stroke-width:0.32758868"
           inkscape:connector-curvature="0"
           id="id_38-5-5"
           atv:refpx="174.019"
           atv:refpy="50.178"
           d="m 159.531,76.043 c 0,0 20.959,0 21.055,0 0.095,0 8.193,-13.052 7.907,-25.914 -0.285,-12.862 -7.717,-25.723 -7.812,-25.723 -0.095,0 -20.864,-0.096 -20.864,-0.096 0,0 8.289,12.005 7.622,25.343 -0.667,13.338 -7.717,26.485 -7.908,26.39" />
      </g>
      <path
         style="fill:#b2b2b2;stroke:#000000;stroke-width:0.0866745"
         inkscape:connector-curvature="0"
         id="id_16-04-1"
         atv:refpx="74.821"
         atv:refpy="38.468"
         d="m 387.28338,180.63931 v 13.68055 h 5.53561 v -13.68055 z" />
      <path
         style="fill:#cccccc;stroke:#000000;stroke-width:0.0866745"
         inkscape:connector-curvature="0"
         id="id_36-25-1"
         atv:refpx="78.848"
         atv:refpy="38.657"
         d="m 387.28418,194.37357 c 0,0 5.54566,0 5.5708,0 0.0251,0 2.16773,-3.45334 2.09206,-6.85615 -0.0754,-3.40307 -2.04153,-6.80588 -2.06693,-6.80588 -0.0251,0 -5.52026,-0.0254 -5.52026,-0.0254 0,0 2.19313,3.17606 2.01665,6.70507 -0.17648,3.52902 -2.04179,7.00749 -2.09232,6.98236" />
      <g
         id="id_53-28-6"
         atv:refpx="45.646"
         atv:refpy="53.496"
         transform="matrix(0.13559896,-0.22719771,0.22719771,0.13559896,385.80301,191.64664)"
         style="stroke-width:0.65517735">
        <path
           style="fill:#b2b2b2;stroke:#000000;stroke-width:0.32758868"
           inkscape:connector-curvature="0"
           id="id_51-83-9"
           atv:refpx="-10.128"
           atv:refpy="-11.728"
           d="M -20.591,-37.584 V 14.119 H 0.329 V -37.584 Z" />
        <path
           style="fill:#cccccc;stroke:#000000;stroke-width:0.32758868"
           inkscape:connector-curvature="0"
           id="id_52-89-3"
           atv:refpx="-6.1"
           atv:refpy="-11.54"
           d="m -20.588,14.323 c 0,0 20.958,0 21.054,0 0.095,0 8.192,-13.052 7.906,-25.911 -0.284,-12.863 -7.717,-25.724 -7.811,-25.724 -0.095,0 -20.863,-0.096 -20.863,-0.096 0,0 8.289,12.005 7.622,25.344 -0.667,13.335 -7.717,26.482 -7.908,26.387" />
      </g>
      <g
         id="id_50-8-8"
         atv:refpx="40.741"
         atv:refpy="87.538"
         transform="matrix(-0.13313833,-0.22865291,0.22865291,-0.13313833,360.91154,210.54342)"
         style="stroke-width:0.65517735">
        <path
           style="fill:#b2b2b2;stroke:#000000;stroke-width:0.32758868"
           inkscape:connector-curvature="0"
           id="id_48-53-4"
           atv:refpx="-9.372"
           atv:refpy="84.797"
           d="m -19.835,58.941 v 51.705 H 1.085 V 58.941 Z" />
        <path
           style="fill:#cccccc;stroke:#000000;stroke-width:0.32758868"
           inkscape:connector-curvature="0"
           id="id_49-22-2"
           atv:refpx="-5.344"
           atv:refpy="84.985"
           d="m -19.832,110.85 c 0,0 20.958,0 21.054,0 0.095,0 8.193,-13.052 7.907,-25.914 C 8.844,72.074 1.412,59.213 1.317,59.213 c -0.095,0 -20.863,-0.096 -20.863,-0.096 0,0 8.289,12.005 7.622,25.343 -0.667,13.338 -7.717,26.485 -7.908,26.39" />
      </g>
      <g
         id="id_47-13-2"
         atv:refpx="69.024"
         atv:refpy="110.569"
         transform="matrix(-0.26458333,0,0,0.26458333,383.3644,187.71057)"
         style="stroke-width:0.65517735">
        <path
           style="fill:#b2b2b2;stroke:#000000;stroke-width:0.32758868"
           inkscape:connector-curvature="0"
           id="id_45-20-3"
           atv:refpx="-23.502"
           atv:refpy="71.13200000000001"
           d="m -33.965,45.276 v 51.705 h 20.921 V 45.276 Z" />
        <path
           style="fill:#cccccc;stroke:#000000;stroke-width:0.32758868"
           inkscape:connector-curvature="0"
           id="id_46-6-4"
           atv:refpx="-19.474"
           atv:refpy="71.31999999999999"
           d="m -33.962,97.185 c 0,0 20.959,0 21.055,0 0.095,0 8.193,-13.052 7.907,-25.914 -0.285,-12.862 -7.717,-25.723 -7.812,-25.723 -0.095,0 -20.864,-0.096 -20.864,-0.096 0,0 8.289,12.005 7.622,25.343 -0.667,13.338 -7.717,26.485 -7.908,26.39" />
      </g>
      <circle
         style="fill:#666666;stroke:#000000;stroke-width:0.0866745"
         r="4.8233542"
         cx="390.05145"
         cy="197.09825"
         id="id_25-51-2"
         atv:refpx="74.819"
         atv:refpy="74.819" />
      <circle
         style="fill:#e5e5e5;stroke-width:0.0866745"
         r="4.1116252"
         cx="390.05145"
         cy="197.09825"
         id="id_26-41-0"
         atv:refpx="74.819"
         atv:refpy="74.819" />
      <circle
         style="fill:#7f7f7f;stroke-width:0.0866745"
         r="1.3438188"
         cx="390.05145"
         cy="197.09825"
         id="id_27-95-3"
         atv:refpx="74.819"
         atv:refpy="74.819" />
      <path
         style="fill:#000000;stroke-width:0.0866745"
         inkscape:connector-curvature="0"
         id="id_28-9-9"
         atv:refpx="14.148"
         atv:refpy="147.075"
         d="m 372.77204,215.84001 h 2.45216 v 0.75115 h -2.45216 z" />
      <path
         style="fill:#000000;stroke-width:0.0866745"
         inkscape:connector-curvature="0"
         id="id_29-6-8"
         atv:refpx="26.551"
         atv:refpy="147.075"
         d="m 376.0542,215.84001 h 2.45163 v 0.75115 h -2.45163 z" />
      <path
         style="fill:#000000;stroke-width:0.0866745"
         inkscape:connector-curvature="0"
         id="id_30-1-5"
         atv:refpx="48.37"
         atv:refpy="147.075"
         d="m 381.82741,215.84001 h 2.4511 v 0.75115 h -2.4511 z" />
      <path
         style="fill:#000000;stroke-width:0.0866745"
         inkscape:connector-curvature="0"
         id="id_31-62-4"
         atv:refpx="135.494"
         atv:refpy="147.075"
         d="m 407.33007,216.59116 h -2.45137 v -0.75115 h 2.45137 z" />
      <path
         style="fill:#000000;stroke-width:0.0866745"
         inkscape:connector-curvature="0"
         id="id_32-23-9"
         atv:refpx="123.09"
         atv:refpy="147.075"
         d="m 404.04818,216.59116 h -2.45137 v -0.75115 h 2.45137 z" />
      <path
         style="fill:#000000;stroke-width:0.0866745"
         inkscape:connector-curvature="0"
         id="id_33-0-9"
         atv:refpx="101.272"
         atv:refpy="147.075"
         d="m 398.2755,216.59116 h -2.45137 v -0.75115 h 2.45137 z" />
    </g>
    <g
       id="g4716-6"
       transform="matrix(1.5263042,0,0,1.5263042,-245.73068,-131.35288)"
       style="stroke-width:0.65517735">
      <path
         style="fill:url(#linearGradient78027-1);stroke:#000000;stroke-width:0.0866745"
         inkscape:connector-curvature="0"
         id="id_4-40-2"
         atv:refpx="74.895"
         atv:refpy="75.259"
         d="m 370.32174,177.46458 h 39.49938 v 39.49938 h -39.49938 z" />
      <circle
         style="fill:#7f7f7f;stroke:#000000;stroke-width:0.0866745"
         r="18.162619"
         cx="389.99747"
         cy="197.14296"
         id="id_35-6-93"
         atv:refpx="74.614"
         atv:refpy="74.987" />
      <circle
         style="fill:#191919;stroke:#000000;stroke-width:0.0866745"
         r="17.273283"
         cx="389.99747"
         cy="197.09349"
         id="id_34-3-6"
         atv:refpx="74.614"
         atv:refpy="74.8" />
      <g
         id="id_42-3-6"
         atv:refpx="102.806"
         atv:refpy="97.68899999999999"
         transform="matrix(-0.12713229,0.23203958,-0.23203958,-0.12713229,452.31328,179.10237)"
         style="stroke-width:0.65517735">
        <path
           style="fill:#b2b2b2;stroke:#000000;stroke-width:0.32758868"
           inkscape:connector-curvature="0"
           id="id_40-4-7"
           atv:refpx="175.306"
           atv:refpy="138.061"
           d="m 164.843,112.205 v 51.705 h 20.921 v -51.705 z" />
        <path
           style="fill:#cccccc;stroke:#000000;stroke-width:0.32758868"
           inkscape:connector-curvature="0"
           id="id_41-2-2"
           atv:refpx="179.334"
           atv:refpy="138.249"
           d="m 164.846,164.114 c 0,0 20.959,0 21.055,0 0.095,0 8.193,-13.052 7.907,-25.914 -0.285,-12.862 -7.717,-25.723 -7.812,-25.723 -0.095,0 -20.864,-0.096 -20.864,-0.096 0,0 8.289,12.005 7.622,25.343 -0.667,13.338 -7.717,26.485 -7.908,26.39" />
      </g>
      <g
         id="id_39-6-1"
         atv:refpx="109.178"
         atv:refpy="60.718"
         transform="matrix(0.13469937,0.22772687,-0.22772687,0.13469937,387.11138,146.99199)"
         style="stroke-width:0.65517735">
        <path
           style="fill:#b2b2b2;stroke:#000000;stroke-width:0.32758868"
           inkscape:connector-curvature="0"
           id="id_37-3-6"
           atv:refpx="169.991"
           atv:refpy="49.99"
           d="m 159.528,24.134 v 51.705 h 20.921 V 24.134 Z" />
        <path
           style="fill:#cccccc;stroke:#000000;stroke-width:0.32758868"
           inkscape:connector-curvature="0"
           id="id_38-5-8"
           atv:refpx="174.019"
           atv:refpy="50.178"
           d="m 159.531,76.043 c 0,0 20.959,0 21.055,0 0.095,0 8.193,-13.052 7.907,-25.914 -0.285,-12.862 -7.717,-25.723 -7.812,-25.723 -0.095,0 -20.864,-0.096 -20.864,-0.096 0,0 8.289,12.005 7.622,25.343 -0.667,13.338 -7.717,26.485 -7.908,26.39" />
      </g>
      <path
         style="fill:#b2b2b2;stroke:#000000;stroke-width:0.0866745"
         inkscape:connector-curvature="0"
         id="id_16-04-7"
         atv:refpx="74.821"
         atv:refpy="38.468"
         d="m 387.28338,180.63931 v 13.68055 h 5.53561 v -13.68055 z" />
      <path
         style="fill:#cccccc;stroke:#000000;stroke-width:0.0866745"
         inkscape:connector-curvature="0"
         id="id_36-25-14"
         atv:refpx="78.848"
         atv:refpy="38.657"
         d="m 387.28418,194.37357 c 0,0 5.54566,0 5.5708,0 0.0251,0 2.16773,-3.45334 2.09206,-6.85615 -0.0754,-3.40307 -2.04153,-6.80588 -2.06693,-6.80588 -0.0251,0 -5.52026,-0.0254 -5.52026,-0.0254 0,0 2.19313,3.17606 2.01665,6.70507 -0.17648,3.52902 -2.04179,7.00749 -2.09232,6.98236" />
      <g
         id="id_53-28-9"
         atv:refpx="45.646"
         atv:refpy="53.496"
         transform="matrix(0.13559896,-0.22719771,0.22719771,0.13559896,385.80301,191.64664)"
         style="stroke-width:0.65517735">
        <path
           style="fill:#b2b2b2;stroke:#000000;stroke-width:0.32758868"
           inkscape:connector-curvature="0"
           id="id_51-83-6"
           atv:refpx="-10.128"
           atv:refpy="-11.728"
           d="M -20.591,-37.584 V 14.119 H 0.329 V -37.584 Z" />
        <path
           style="fill:#cccccc;stroke:#000000;stroke-width:0.32758868"
           inkscape:connector-curvature="0"
           id="id_52-89-9"
           atv:refpx="-6.1"
           atv:refpy="-11.54"
           d="m -20.588,14.323 c 0,0 20.958,0 21.054,0 0.095,0 8.192,-13.052 7.906,-25.911 -0.284,-12.863 -7.717,-25.724 -7.811,-25.724 -0.095,0 -20.863,-0.096 -20.863,-0.096 0,0 8.289,12.005 7.622,25.344 -0.667,13.335 -7.717,26.482 -7.908,26.387" />
      </g>
      <g
         id="id_50-8-0"
         atv:refpx="40.741"
         atv:refpy="87.538"
         transform="matrix(-0.13313833,-0.22865291,0.22865291,-0.13313833,360.91154,210.54342)"
         style="stroke-width:0.65517735">
        <path
           style="fill:#b2b2b2;stroke:#000000;stroke-width:0.32758868"
           inkscape:connector-curvature="0"
           id="id_48-53-9"
           atv:refpx="-9.372"
           atv:refpy="84.797"
           d="m -19.835,58.941 v 51.705 H 1.085 V 58.941 Z" />
        <path
           style="fill:#cccccc;stroke:#000000;stroke-width:0.32758868"
           inkscape:connector-curvature="0"
           id="id_49-22-6"
           atv:refpx="-5.344"
           atv:refpy="84.985"
           d="m -19.832,110.85 c 0,0 20.958,0 21.054,0 0.095,0 8.193,-13.052 7.907,-25.914 C 8.844,72.074 1.412,59.213 1.317,59.213 c -0.095,0 -20.863,-0.096 -20.863,-0.096 0,0 8.289,12.005 7.622,25.343 -0.667,13.338 -7.717,26.485 -7.908,26.39" />
      </g>
      <g
         id="id_47-13-0"
         atv:refpx="69.024"
         atv:refpy="110.569"
         transform="matrix(-0.26458333,0,0,0.26458333,383.3644,187.71057)"
         style="stroke-width:0.65517735">
        <path
           style="fill:#b2b2b2;stroke:#000000;stroke-width:0.32758868"
           inkscape:connector-curvature="0"
           id="id_45-20-5"
           atv:refpx="-23.502"
           atv:refpy="71.13200000000001"
           d="m -33.965,45.276 v 51.705 h 20.921 V 45.276 Z" />
        <path
           style="fill:#cccccc;stroke:#000000;stroke-width:0.32758868"
           inkscape:connector-curvature="0"
           id="id_46-6-42"
           atv:refpx="-19.474"
           atv:refpy="71.31999999999999"
           d="m -33.962,97.185 c 0,0 20.959,0 21.055,0 0.095,0 8.193,-13.052 7.907,-25.914 -0.285,-12.862 -7.717,-25.723 -7.812,-25.723 -0.095,0 -20.864,-0.096 -20.864,-0.096 0,0 8.289,12.005 7.622,25.343 -0.667,13.338 -7.717,26.485 -7.908,26.39" />
      </g>
      <circle
         style="fill:#666666;stroke:#000000;stroke-width:0.0866745"
         r="4.8233542"
         cx="390.05145"
         cy="197.09825"
         id="id_25-51-9"
         atv:refpx="74.819"
         atv:refpy="74.819" />
      <circle
         style="fill:#e5e5e5;stroke-width:0.0866745"
         r="4.1116252"
         cx="390.05145"
         cy="197.09825"
         id="id_26-41-9"
         atv:refpx="74.819"
         atv:refpy="74.819" />
      <circle
         style="fill:#7f7f7f;stroke-width:0.0866745"
         r="1.3438188"
         cx="390.05145"
         cy="197.09825"
         id="id_27-95-7"
         atv:refpx="74.819"
         atv:refpy="74.819" />
      <path
         style="fill:#000000;stroke-width:0.0866745"
         inkscape:connector-curvature="0"
         id="id_28-9-5"
         atv:refpx="14.148"
         atv:refpy="147.075"
         d="m 372.77204,215.84001 h 2.45216 v 0.75115 h -2.45216 z" />
      <path
         style="fill:#000000;stroke-width:0.0866745"
         inkscape:connector-curvature="0"
         id="id_29-6-1"
         atv:refpx="26.551"
         atv:refpy="147.075"
         d="m 376.0542,215.84001 h 2.45163 v 0.75115 h -2.45163 z" />
      <path
         style="fill:#000000;stroke-width:0.0866745"
         inkscape:connector-curvature="0"
         id="id_30-1-4"
         atv:refpx="48.37"
         atv:refpy="147.075"
         d="m 381.82741,215.84001 h 2.4511 v 0.75115 h -2.4511 z" />
      <path
         style="fill:#000000;stroke-width:0.0866745"
         inkscape:connector-curvature="0"
         id="id_31-62-8"
         atv:refpx="135.494"
         atv:refpy="147.075"
         d="m 407.33007,216.59116 h -2.45137 v -0.75115 h 2.45137 z" />
      <path
         style="fill:#000000;stroke-width:0.0866745"
         inkscape:connector-curvature="0"
         id="id_32-23-7"
         atv:refpx="123.09"
         atv:refpy="147.075"
         d="m 404.04818,216.59116 h -2.45137 v -0.75115 h 2.45137 z" />
      <path
         style="fill:#000000;stroke-width:0.0866745"
         inkscape:connector-curvature="0"
         id="id_33-0-92"
         atv:refpx="101.272"
         atv:refpy="147.075"
         d="m 398.2755,216.59116 h -2.45137 v -0.75115 h 2.45137 z" />
    </g>
    <path
       style="fill:none;fill-rule:evenodd;stroke:#b400b4;stroke-width:1.58700013;stroke-linecap:butt;stroke-linejoin:miter;stroke-miterlimit:4;stroke-dasharray:none;stroke-opacity:1"
       d="M -9.2602996,273.57946 H 485.5043"
       id="path5109-4-7-2-2-9-9-3-1"
       inkscape:connector-curvature="0" />
    <g
       id="g14568"
       transform="translate(17.08709,163.24606)">
      <path
         inkscape:connector-curvature="0"
         id="path12705"
         d="m 110.49001,88.640027 v 5.746294"
         style="fill:none;fill-rule:evenodd;stroke:#000000;stroke-width:0.18520832;stroke-linecap:butt;stroke-linejoin:miter;stroke-miterlimit:4;stroke-dasharray:none;stroke-opacity:1" />
      <path
         inkscape:connector-curvature="0"
         id="path12705-4"
         d="m 113.00899,88.640027 v 5.746294"
         style="fill:none;fill-rule:evenodd;stroke:#000000;stroke-width:0.18520834;stroke-linecap:butt;stroke-linejoin:miter;stroke-miterlimit:4;stroke-dasharray:none;stroke-opacity:1" />
    </g>
    <g
       id="g14568-2"
       transform="translate(122.97515,163.24606)">
      <path
         inkscape:connector-curvature="0"
         id="path12705-2"
         d="m 110.49001,88.640027 v 5.746294"
         style="fill:none;fill-rule:evenodd;stroke:#000000;stroke-width:0.18520832;stroke-linecap:butt;stroke-linejoin:miter;stroke-miterlimit:4;stroke-dasharray:none;stroke-opacity:1" />
      <path
         inkscape:connector-curvature="0"
         id="path12705-4-3"
         d="m 113.00899,88.640027 v 5.746294"
         style="fill:none;fill-rule:evenodd;stroke:#000000;stroke-width:0.18520834;stroke-linecap:butt;stroke-linejoin:miter;stroke-miterlimit:4;stroke-dasharray:none;stroke-opacity:1" />
    </g>
    <g
       id="g14568-1"
       transform="translate(228.86318,163.24606)">
      <path
         inkscape:connector-curvature="0"
         id="path12705-7"
         d="m 110.49001,88.640027 v 5.746294"
         style="fill:none;fill-rule:evenodd;stroke:#000000;stroke-width:0.18520832;stroke-linecap:butt;stroke-linejoin:miter;stroke-miterlimit:4;stroke-dasharray:none;stroke-opacity:1" />
      <path
         inkscape:connector-curvature="0"
         id="path12705-4-6"
         d="m 113.00899,88.640027 v 5.746294"
         style="fill:none;fill-rule:evenodd;stroke:#000000;stroke-width:0.18520834;stroke-linecap:butt;stroke-linejoin:miter;stroke-miterlimit:4;stroke-dasharray:none;stroke-opacity:1" />
    </g>
    <path
       style="fill:none;fill-rule:evenodd;stroke:#ff00ff;stroke-width:1.58699989;stroke-linecap:butt;stroke-linejoin:miter;stroke-miterlimit:4;stroke-dasharray:none;stroke-opacity:1"
       d="M 130.18868,254.75923 H 233.37256"
       id="path5109-0-5-3-6-9-0-5-45-0-8"
       inkscape:connector-curvature="0" />
    <path
       style="fill:none;fill-rule:evenodd;stroke:#ff00ff;stroke-width:1.58699989;stroke-linecap:butt;stroke-linejoin:miter;stroke-miterlimit:4;stroke-dasharray:none;stroke-opacity:1"
       d="M 236.07674,254.75923 H 339.26062"
       id="path5109-0-5-3-6-9-0-5-45-0-8-4"
       inkscape:connector-curvature="0" />
    <path
       style="fill:none;fill-rule:evenodd;stroke:#ff00ff;stroke-width:1.58700013;stroke-linecap:butt;stroke-linejoin:miter;stroke-miterlimit:4;stroke-dasharray:none;stroke-opacity:1"
       d="M 341.96481,254.75926 H 485.50432"
       id="path5109-0-5-3-6-9-0-5-45-0-8-4-3"
       inkscape:connector-curvature="0" />
    <path
       style="fill:none;stroke:#000000;stroke-width:1.06500006;stroke-linecap:butt;stroke-linejoin:miter;stroke-miterlimit:0;stroke-dasharray:8.51999995, 1.06499999;stroke-dashoffset:0;stroke-opacity:1"
       d="M 190.80492,109.14582 V 296.99999"
       id="path4669"
       inkscape:connector-curvature="0" />
    <path
       style="fill:none;stroke:#000000;stroke-width:1.06500006;stroke-linecap:butt;stroke-linejoin:miter;stroke-miterlimit:0;stroke-dasharray:8.5200001, 1.06500001;stroke-dashoffset:0;stroke-opacity:1"
       d="M 296.69297,109.14582 V 297"
       id="path4669-2"
       inkscape:connector-curvature="0" />
  </g>
</svg>
