<?xml version="1.0" encoding="utf-8"?>
<!-- Generator: Adobe Illustrator 16.0.0, SVG Export Plug-In . SVG Version: 6.00 Build 0)  -->
<!DOCTYPE svg PUBLIC "-//W3C//DTD SVG 1.1//EN" "http://www.w3.org/Graphics/SVG/1.1/DTD/svg11.dtd">
<svg version="1.1" id="Ebene_1" xmlns="http://www.w3.org/2000/svg" xmlns:xlink="http://www.w3.org/1999/xlink" x="0px" y="0px"
	 width="1850px" height="710px" viewBox="0 0 1850 710" enable-background="new 0 0 1850 710" xml:space="preserve">
<g>
	<polyline fill="none" stroke="#FF0000" stroke-width="10" stroke-miterlimit="10" points="899.5,235.001 1049.5,385.001 
		1649.5,385.001 	"/>
	<polyline fill="none" stroke="#00FF00" stroke-width="10" stroke-miterlimit="10" points="149.5,85 749.5,85 899.5,235 	"/>
	<polyline fill="none" stroke="#FFCB00" stroke-width="10" stroke-miterlimit="10" points="900.5,235 1050.5,85 1650.5,85 	"/>
	<line fill="none" stroke="#0000FF" stroke-width="10" stroke-miterlimit="10" x1="900.5" y1="235.001" x2="750.5" y2="385.001"/>
	<polyline fill="none" stroke="#0000FF" stroke-width="10" stroke-miterlimit="10" points="1034.312,235.001 884.312,385.001 
		150.5,385.001 	"/>
	<line fill="none" stroke="#FFCB00" stroke-width="10" stroke-miterlimit="10" x1="1184.312" y1="85" x2="1034.312" y2="235"/>
	
		<rect x="824.493" y="159.995" transform="matrix(-0.7071 -0.7071 0.7071 -0.7071 1369.3599 1037.1998)" fill="#B2B2B2" stroke="#1D1D1B" stroke-miterlimit="10" width="149.998" height="149.998"/>
</g>
<rect x="1229.5" y="347.501" fill="#9D9D9C" stroke="#1D1D1B" stroke-miterlimit="10" width="40" height="75.001"/>
<line fill="none" stroke="#1D1D1B" stroke-miterlimit="10" x1="1229.5" y1="422.502" x2="1269.5" y2="347.501"/>
<line fill="none" stroke="#FF0000" stroke-width="6" stroke-miterlimit="10" x1="1236" y1="422.502" x2="1236" y2="585"/>
<line fill="none" stroke="#0000FF" stroke-width="6" stroke-miterlimit="10" x1="1263" y1="422.502" x2="1263" y2="585"/>
<linearGradient id="SVGID_1_" gradientUnits="userSpaceOnUse" x1="1525.5999" y1="-320.9006" x2="1552.5999" y2="-320.9006" gradientTransform="matrix(1 0 0 -1 -289.5996 188.0991)">
	<stop  offset="0" style="stop-color:#FF0000"/>
	<stop  offset="1" style="stop-color:#0000FF"/>
</linearGradient>
<line fill="none" stroke="url(#SVGID_1_)" stroke-width="6" stroke-miterlimit="10" x1="1236" y1="509" x2="1263" y2="509"/>
<line fill="none" stroke="#000000" stroke-width="1" stroke-miterlimit="10" x1="1452.5" y1="385.001" x2="1452.5" y2="323.5"/>
<line fill="none" stroke="#000000" stroke-width="1" stroke-linecap="square" stroke-miterlimit="10" x1="1452.5" y1="323.5" x2="1534.5" y2="323.5"/>
<line fill="none" stroke="#000000" stroke-width="1" stroke-miterlimit="10" x1="1534.5" y1="323.5" x2="1534.5" y2="385.002"/>
<line fill="none" stroke="#000000" stroke-width="1" stroke-miterlimit="10" x1="369.5" y1="385.001" x2="369.5" y2="323.5"/>
<line fill="none" stroke="#000000" stroke-width="1" stroke-linecap="square" stroke-miterlimit="10" x1="369.5" y1="323.5" x2="451.5" y2="323.5"/>
<line fill="none" stroke="#000000" stroke-width="1" stroke-miterlimit="10" x1="451.5" y1="323.5" x2="451.5" y2="385.002"/>
</svg>
